%!PS-Adobe-3.0 EPSF-3.0
%%Creator: (MATLAB, The Mathworks, Inc. Version 9.2.0.538062 \(R2017a\). Operating System: Linux)
%%Title: ./avg_success.eps
%%CreationDate: 2017-05-24T18:02:16
%%Pages: (atend)
%%BoundingBox:    38    16   509   393
%%LanguageLevel: 3
%%EndComments
%%BeginProlog
%%BeginResource: procset (Apache XML Graphics Std ProcSet) 1.2 0
%%Version: 1.2 0
%%Copyright: (Copyright 2001-2003,2010 The Apache Software Foundation. License terms: http://www.apache.org/licenses/LICENSE-2.0)
/bd{bind def}bind def
/ld{load def}bd
/GR/grestore ld
/M/moveto ld
/LJ/setlinejoin ld
/C/curveto ld
/f/fill ld
/LW/setlinewidth ld
/GC/setgray ld
/t/show ld
/N/newpath ld
/CT/concat ld
/cp/closepath ld
/S/stroke ld
/L/lineto ld
/CC/setcmykcolor ld
/A/ashow ld
/GS/gsave ld
/RC/setrgbcolor ld
/RM/rmoveto ld
/ML/setmiterlimit ld
/re {4 2 roll M
1 index 0 rlineto
0 exch rlineto
neg 0 rlineto
cp } bd
/_ctm matrix def
/_tm matrix def
/BT { _ctm currentmatrix pop matrix _tm copy pop 0 0 moveto } bd
/ET { _ctm setmatrix } bd
/iTm { _ctm setmatrix _tm concat } bd
/Tm { _tm astore pop iTm 0 0 moveto } bd
/ux 0.0 def
/uy 0.0 def
/F {
  /Tp exch def
  /Tf exch def
  Tf findfont Tp scalefont setfont
  /cf Tf def  /cs Tp def
} bd
/ULS {currentpoint /uy exch def /ux exch def} bd
/ULE {
  /Tcx currentpoint pop def
  gsave
  newpath
  cf findfont cs scalefont dup
  /FontMatrix get 0 get /Ts exch def /FontInfo get dup
  /UnderlinePosition get Ts mul /To exch def
  /UnderlineThickness get Ts mul /Tt exch def
  ux uy To add moveto  Tcx uy To add lineto
  Tt setlinewidth stroke
  grestore
} bd
/OLE {
  /Tcx currentpoint pop def
  gsave
  newpath
  cf findfont cs scalefont dup
  /FontMatrix get 0 get /Ts exch def /FontInfo get dup
  /UnderlinePosition get Ts mul /To exch def
  /UnderlineThickness get Ts mul /Tt exch def
  ux uy To add cs add moveto Tcx uy To add cs add lineto
  Tt setlinewidth stroke
  grestore
} bd
/SOE {
  /Tcx currentpoint pop def
  gsave
  newpath
  cf findfont cs scalefont dup
  /FontMatrix get 0 get /Ts exch def /FontInfo get dup
  /UnderlinePosition get Ts mul /To exch def
  /UnderlineThickness get Ts mul /Tt exch def
  ux uy To add cs 10 mul 26 idiv add moveto Tcx uy To add cs 10 mul 26 idiv add lineto
  Tt setlinewidth stroke
  grestore
} bd
/QT {
/Y22 exch store
/X22 exch store
/Y21 exch store
/X21 exch store
currentpoint
/Y21 load 2 mul add 3 div exch
/X21 load 2 mul add 3 div exch
/X21 load 2 mul /X22 load add 3 div
/Y21 load 2 mul /Y22 load add 3 div
/X22 load /Y22 load curveto
} bd
/SSPD {
dup length /d exch dict def
{
/v exch def
/k exch def
currentpagedevice k known {
/cpdv currentpagedevice k get def
v cpdv ne {
/upd false def
/nullv v type /nulltype eq def
/nullcpdv cpdv type /nulltype eq def
nullv nullcpdv or
{
/upd true def
} {
/sametype v type cpdv type eq def
sametype {
v type /arraytype eq {
/vlen v length def
/cpdvlen cpdv length def
vlen cpdvlen eq {
0 1 vlen 1 sub {
/i exch def
/obj v i get def
/cpdobj cpdv i get def
obj cpdobj ne {
/upd true def
exit
} if
} for
} {
/upd true def
} ifelse
} {
v type /dicttype eq {
v {
/dv exch def
/dk exch def
/cpddv cpdv dk get def
dv cpddv ne {
/upd true def
exit
} if
} forall
} {
/upd true def
} ifelse
} ifelse
} if
} ifelse
upd true eq {
d k v put
} if
} if
} if
} forall
d length 0 gt {
d setpagedevice
} if
} bd
/RE { % /NewFontName [NewEncodingArray] /FontName RE -
  findfont dup length dict begin
  {
    1 index /FID ne
    {def} {pop pop} ifelse
  } forall
  /Encoding exch def
  /FontName 1 index def
  currentdict definefont pop
  end
} bind def
%%EndResource
%%BeginResource: procset (Apache XML Graphics EPS ProcSet) 1.0 0
%%Version: 1.0 0
%%Copyright: (Copyright 2002-2003 The Apache Software Foundation. License terms: http://www.apache.org/licenses/LICENSE-2.0)
/BeginEPSF { %def
/b4_Inc_state save def         % Save state for cleanup
/dict_count countdictstack def % Count objects on dict stack
/op_count count 1 sub def      % Count objects on operand stack
userdict begin                 % Push userdict on dict stack
/showpage { } def              % Redefine showpage, { } = null proc
0 setgray 0 setlinecap         % Prepare graphics state
1 setlinewidth 0 setlinejoin
10 setmiterlimit [ ] 0 setdash newpath
/languagelevel where           % If level not equal to 1 then
{pop languagelevel             % set strokeadjust and
1 ne                           % overprint to their defaults.
{false setstrokeadjust false setoverprint
} if
} if
} bd
/EndEPSF { %def
count op_count sub {pop} repeat            % Clean up stacks
countdictstack dict_count sub {end} repeat
b4_Inc_state restore
} bd
%%EndResource
%FOPBeginFontDict
%%IncludeResource: font Courier-Bold
%%IncludeResource: font Helvetica
%%IncludeResource: font Courier-BoldOblique
%%IncludeResource: font Courier-Oblique
%%IncludeResource: font Times-Roman
%%IncludeResource: font Helvetica-BoldOblique
%%IncludeResource: font Helvetica-Bold
%%IncludeResource: font Helvetica-Oblique
%%IncludeResource: font Times-BoldItalic
%%IncludeResource: font Courier
%%IncludeResource: font Times-Italic
%%IncludeResource: font Times-Bold
%%IncludeResource: font Symbol
%%IncludeResource: font ZapfDingbats
%FOPEndFontDict
%%BeginResource: encoding WinAnsiEncoding
/WinAnsiEncoding [
/.notdef /.notdef /.notdef /.notdef /.notdef
/.notdef /.notdef /.notdef /.notdef /.notdef
/.notdef /.notdef /.notdef /.notdef /.notdef
/.notdef /.notdef /.notdef /.notdef /.notdef
/.notdef /.notdef /.notdef /.notdef /.notdef
/.notdef /.notdef /.notdef /.notdef /.notdef
/.notdef /.notdef /space /exclam /quotedbl
/numbersign /dollar /percent /ampersand /quotesingle
/parenleft /parenright /asterisk /plus /comma
/hyphen /period /slash /zero /one
/two /three /four /five /six
/seven /eight /nine /colon /semicolon
/less /equal /greater /question /at
/A /B /C /D /E
/F /G /H /I /J
/K /L /M /N /O
/P /Q /R /S /T
/U /V /W /X /Y
/Z /bracketleft /backslash /bracketright /asciicircum
/underscore /quoteleft /a /b /c
/d /e /f /g /h
/i /j /k /l /m
/n /o /p /q /r
/s /t /u /v /w
/x /y /z /braceleft /bar
/braceright /asciitilde /bullet /Euro /bullet
/quotesinglbase /florin /quotedblbase /ellipsis /dagger
/daggerdbl /circumflex /perthousand /Scaron /guilsinglleft
/OE /bullet /Zcaron /bullet /bullet
/quoteleft /quoteright /quotedblleft /quotedblright /bullet
/endash /emdash /asciitilde /trademark /scaron
/guilsinglright /oe /bullet /zcaron /Ydieresis
/space /exclamdown /cent /sterling /currency
/yen /brokenbar /section /dieresis /copyright
/ordfeminine /guillemotleft /logicalnot /sfthyphen /registered
/macron /degree /plusminus /twosuperior /threesuperior
/acute /mu /paragraph /middot /cedilla
/onesuperior /ordmasculine /guillemotright /onequarter /onehalf
/threequarters /questiondown /Agrave /Aacute /Acircumflex
/Atilde /Adieresis /Aring /AE /Ccedilla
/Egrave /Eacute /Ecircumflex /Edieresis /Igrave
/Iacute /Icircumflex /Idieresis /Eth /Ntilde
/Ograve /Oacute /Ocircumflex /Otilde /Odieresis
/multiply /Oslash /Ugrave /Uacute /Ucircumflex
/Udieresis /Yacute /Thorn /germandbls /agrave
/aacute /acircumflex /atilde /adieresis /aring
/ae /ccedilla /egrave /eacute /ecircumflex
/edieresis /igrave /iacute /icircumflex /idieresis
/eth /ntilde /ograve /oacute /ocircumflex
/otilde /odieresis /divide /oslash /ugrave
/uacute /ucircumflex /udieresis /yacute /thorn
/ydieresis
] def
%%EndResource
%FOPBeginFontReencode
/Courier-Bold findfont
dup length dict begin
  {1 index /FID ne {def} {pop pop} ifelse} forall
  /Encoding WinAnsiEncoding def
  currentdict
end
/Courier-Bold exch definefont pop
/Helvetica findfont
dup length dict begin
  {1 index /FID ne {def} {pop pop} ifelse} forall
  /Encoding WinAnsiEncoding def
  currentdict
end
/Helvetica exch definefont pop
/Courier-BoldOblique findfont
dup length dict begin
  {1 index /FID ne {def} {pop pop} ifelse} forall
  /Encoding WinAnsiEncoding def
  currentdict
end
/Courier-BoldOblique exch definefont pop
/Courier-Oblique findfont
dup length dict begin
  {1 index /FID ne {def} {pop pop} ifelse} forall
  /Encoding WinAnsiEncoding def
  currentdict
end
/Courier-Oblique exch definefont pop
/Times-Roman findfont
dup length dict begin
  {1 index /FID ne {def} {pop pop} ifelse} forall
  /Encoding WinAnsiEncoding def
  currentdict
end
/Times-Roman exch definefont pop
/Helvetica-BoldOblique findfont
dup length dict begin
  {1 index /FID ne {def} {pop pop} ifelse} forall
  /Encoding WinAnsiEncoding def
  currentdict
end
/Helvetica-BoldOblique exch definefont pop
/Helvetica-Bold findfont
dup length dict begin
  {1 index /FID ne {def} {pop pop} ifelse} forall
  /Encoding WinAnsiEncoding def
  currentdict
end
/Helvetica-Bold exch definefont pop
/Helvetica-Oblique findfont
dup length dict begin
  {1 index /FID ne {def} {pop pop} ifelse} forall
  /Encoding WinAnsiEncoding def
  currentdict
end
/Helvetica-Oblique exch definefont pop
/Times-BoldItalic findfont
dup length dict begin
  {1 index /FID ne {def} {pop pop} ifelse} forall
  /Encoding WinAnsiEncoding def
  currentdict
end
/Times-BoldItalic exch definefont pop
/Courier findfont
dup length dict begin
  {1 index /FID ne {def} {pop pop} ifelse} forall
  /Encoding WinAnsiEncoding def
  currentdict
end
/Courier exch definefont pop
/Times-Italic findfont
dup length dict begin
  {1 index /FID ne {def} {pop pop} ifelse} forall
  /Encoding WinAnsiEncoding def
  currentdict
end
/Times-Italic exch definefont pop
/Times-Bold findfont
dup length dict begin
  {1 index /FID ne {def} {pop pop} ifelse} forall
  /Encoding WinAnsiEncoding def
  currentdict
end
/Times-Bold exch definefont pop
%FOPEndFontReencode
%%EndProlog
%%Page: 1 1
%%PageBoundingBox: 0 0 560 420
%%BeginPageSetup
[1 0 0 -1 0 420] CT
%%EndPageSetup
GS
1 GC
N
0 0 560 420 re
f
GR
GS
1 GC
N
0 0 560 420 re
f
GR
GS
1 GC
N
73 374 M
507 374 L
507 31 L
73 31 L
cp
f
GR
GS
0.873 GC
1 LJ
0.5 LW
N
73 374 M
73 31 L
S
GR
GS
0.873 GC
1 LJ
0.5 LW
N
116.4 374 M
116.4 31 L
S
GR
GS
0.873 GC
1 LJ
0.5 LW
N
159.8 374 M
159.8 31 L
S
GR
GS
0.873 GC
1 LJ
0.5 LW
N
203.2 374 M
203.2 31 L
S
GR
GS
0.873 GC
1 LJ
0.5 LW
N
246.6 374 M
246.6 31 L
S
GR
GS
0.873 GC
1 LJ
0.5 LW
N
290 374 M
290 31 L
S
GR
GS
0.873 GC
1 LJ
0.5 LW
N
333.4 374 M
333.4 31 L
S
GR
GS
0.873 GC
1 LJ
0.5 LW
N
376.8 374 M
376.8 31 L
S
GR
GS
0.873 GC
1 LJ
0.5 LW
N
420.2 374 M
420.2 31 L
S
GR
GS
0.873 GC
1 LJ
0.5 LW
N
463.6 374 M
463.6 31 L
S
GR
GS
0.873 GC
1 LJ
0.5 LW
N
507 374 M
507 31 L
S
GR
GS
0.873 GC
1 LJ
0.5 LW
N
507 374 M
73 374 L
S
GR
GS
0.873 GC
1 LJ
0.5 LW
N
507 339.7 M
73 339.7 L
S
GR
GS
0.873 GC
1 LJ
0.5 LW
N
507 305.4 M
73 305.4 L
S
GR
GS
0.873 GC
1 LJ
0.5 LW
N
507 271.1 M
73 271.1 L
S
GR
GS
0.873 GC
1 LJ
0.5 LW
N
507 236.8 M
73 236.8 L
S
GR
GS
0.873 GC
1 LJ
0.5 LW
N
507 202.5 M
73 202.5 L
S
GR
GS
0.873 GC
1 LJ
0.5 LW
N
507 168.2 M
73 168.2 L
S
GR
GS
0.873 GC
1 LJ
0.5 LW
N
507 133.9 M
73 133.9 L
S
GR
GS
0.873 GC
1 LJ
0.5 LW
N
507 99.6 M
73 99.6 L
S
GR
GS
0.873 GC
1 LJ
0.5 LW
N
507 65.3 M
73 65.3 L
S
GR
GS
0.873 GC
1 LJ
0.5 LW
N
507 31 M
73 31 L
S
GR
GS
0.149 GC
2 setlinecap
1 LJ
0.5 LW
N
73 374 M
507 374 L
S
GR
GS
0.149 GC
2 setlinecap
1 LJ
0.5 LW
N
73 31 M
507 31 L
S
GR
GS
0.149 GC
2 setlinecap
1 LJ
0.5 LW
N
73 374 M
73 369.66 L
S
GR
GS
0.149 GC
2 setlinecap
1 LJ
0.5 LW
N
116.4 374 M
116.4 369.66 L
S
GR
GS
0.149 GC
2 setlinecap
1 LJ
0.5 LW
N
159.8 374 M
159.8 369.66 L
S
GR
GS
0.149 GC
2 setlinecap
1 LJ
0.5 LW
N
203.2 374 M
203.2 369.66 L
S
GR
GS
0.149 GC
2 setlinecap
1 LJ
0.5 LW
N
246.6 374 M
246.6 369.66 L
S
GR
GS
0.149 GC
2 setlinecap
1 LJ
0.5 LW
N
290 374 M
290 369.66 L
S
GR
GS
0.149 GC
2 setlinecap
1 LJ
0.5 LW
N
333.4 374 M
333.4 369.66 L
S
GR
GS
0.149 GC
2 setlinecap
1 LJ
0.5 LW
N
376.8 374 M
376.8 369.66 L
S
GR
GS
0.149 GC
2 setlinecap
1 LJ
0.5 LW
N
420.2 374 M
420.2 369.66 L
S
GR
GS
0.149 GC
2 setlinecap
1 LJ
0.5 LW
N
463.6 374 M
463.6 369.66 L
S
GR
GS
0.149 GC
2 setlinecap
1 LJ
0.5 LW
N
507 374 M
507 369.66 L
S
GR
GS
0.149 GC
2 setlinecap
1 LJ
0.5 LW
N
73 31 M
73 35.34 L
S
GR
GS
0.149 GC
2 setlinecap
1 LJ
0.5 LW
N
116.4 31 M
116.4 35.34 L
S
GR
GS
0.149 GC
2 setlinecap
1 LJ
0.5 LW
N
159.8 31 M
159.8 35.34 L
S
GR
GS
0.149 GC
2 setlinecap
1 LJ
0.5 LW
N
203.2 31 M
203.2 35.34 L
S
GR
GS
0.149 GC
2 setlinecap
1 LJ
0.5 LW
N
246.6 31 M
246.6 35.34 L
S
GR
GS
0.149 GC
2 setlinecap
1 LJ
0.5 LW
N
290 31 M
290 35.34 L
S
GR
GS
0.149 GC
2 setlinecap
1 LJ
0.5 LW
N
333.4 31 M
333.4 35.34 L
S
GR
GS
0.149 GC
2 setlinecap
1 LJ
0.5 LW
N
376.8 31 M
376.8 35.34 L
S
GR
GS
0.149 GC
2 setlinecap
1 LJ
0.5 LW
N
420.2 31 M
420.2 35.34 L
S
GR
GS
0.149 GC
2 setlinecap
1 LJ
0.5 LW
N
463.6 31 M
463.6 35.34 L
S
GR
GS
0.149 GC
2 setlinecap
1 LJ
0.5 LW
N
507 31 M
507 35.34 L
S
GR
GS
[1 0 0 1 73 378] CT
0.149 GC
/Helvetica 10 F
GS
[1 0 0 1 0 0] CT
-3.5 10 moveto 
1 -1 scale
(0) t 
GR
GR
GS
[1 0 0 1 116.4 378] CT
0.149 GC
/Helvetica 10 F
GS
[1 0 0 1 0 0] CT
-8 10 moveto 
1 -1 scale
(0.1) t 
GR
GR
GS
[1 0 0 1 159.8 378] CT
0.149 GC
/Helvetica 10 F
GS
[1 0 0 1 0 0] CT
-8 10 moveto 
1 -1 scale
(0.2) t 
GR
GR
GS
[1 0 0 1 203.20001 378] CT
0.149 GC
/Helvetica 10 F
GS
[1 0 0 1 0 0] CT
-8 10 moveto 
1 -1 scale
(0.3) t 
GR
GR
GS
[1 0 0 1 246.60001 378] CT
0.149 GC
/Helvetica 10 F
GS
[1 0 0 1 0 0] CT
-8 10 moveto 
1 -1 scale
(0.4) t 
GR
GR
GS
[1 0 0 1 290 378] CT
0.149 GC
/Helvetica 10 F
GS
[1 0 0 1 0 0] CT
-8 10 moveto 
1 -1 scale
(0.5) t 
GR
GR
GS
[1 0 0 1 333.40002 378] CT
0.149 GC
/Helvetica 10 F
GS
[1 0 0 1 0 0] CT
-8 10 moveto 
1 -1 scale
(0.6) t 
GR
GR
GS
[1 0 0 1 376.79999 378] CT
0.149 GC
/Helvetica 10 F
GS
[1 0 0 1 0 0] CT
-8 10 moveto 
1 -1 scale
(0.7) t 
GR
GR
GS
[1 0 0 1 420.20001 378] CT
0.149 GC
/Helvetica 10 F
GS
[1 0 0 1 0 0] CT
-8 10 moveto 
1 -1 scale
(0.8) t 
GR
GR
GS
[1 0 0 1 463.59998 378] CT
0.149 GC
/Helvetica 10 F
GS
[1 0 0 1 0 0] CT
-8 10 moveto 
1 -1 scale
(0.9) t 
GR
GR
GS
[1 0 0 1 507 378] CT
0.149 GC
/Helvetica 10 F
GS
[1 0 0 1 0 0] CT
-3.5 10 moveto 
1 -1 scale
(1) t 
GR
GR
GS
[1 0 0 1 290.00021 392] CT
0.149 GC
/Helvetica 11 F
GS
[1 0 0 1 0 0] CT
-51.5 11 moveto 
1 -1 scale
(Controlled fraction) t 
GR
GR
GS
0.149 GC
2 setlinecap
1 LJ
0.5 LW
N
73 374 M
73 31 L
S
GR
GS
0.149 GC
2 setlinecap
1 LJ
0.5 LW
N
507 374 M
507 31 L
S
GR
GS
0.149 GC
2 setlinecap
1 LJ
0.5 LW
N
73 374 M
77.34 374 L
S
GR
GS
0.149 GC
2 setlinecap
1 LJ
0.5 LW
N
73 339.7 M
77.34 339.7 L
S
GR
GS
0.149 GC
2 setlinecap
1 LJ
0.5 LW
N
73 305.4 M
77.34 305.4 L
S
GR
GS
0.149 GC
2 setlinecap
1 LJ
0.5 LW
N
73 271.1 M
77.34 271.1 L
S
GR
GS
0.149 GC
2 setlinecap
1 LJ
0.5 LW
N
73 236.8 M
77.34 236.8 L
S
GR
GS
0.149 GC
2 setlinecap
1 LJ
0.5 LW
N
73 202.5 M
77.34 202.5 L
S
GR
GS
0.149 GC
2 setlinecap
1 LJ
0.5 LW
N
73 168.2 M
77.34 168.2 L
S
GR
GS
0.149 GC
2 setlinecap
1 LJ
0.5 LW
N
73 133.9 M
77.34 133.9 L
S
GR
GS
0.149 GC
2 setlinecap
1 LJ
0.5 LW
N
73 99.6 M
77.34 99.6 L
S
GR
GS
0.149 GC
2 setlinecap
1 LJ
0.5 LW
N
73 65.3 M
77.34 65.3 L
S
GR
GS
0.149 GC
2 setlinecap
1 LJ
0.5 LW
N
73 31 M
77.34 31 L
S
GR
GS
0.149 GC
2 setlinecap
1 LJ
0.5 LW
N
507 374 M
502.66 374 L
S
GR
GS
0.149 GC
2 setlinecap
1 LJ
0.5 LW
N
507 339.7 M
502.66 339.7 L
S
GR
GS
0.149 GC
2 setlinecap
1 LJ
0.5 LW
N
507 305.4 M
502.66 305.4 L
S
GR
GS
0.149 GC
2 setlinecap
1 LJ
0.5 LW
N
507 271.1 M
502.66 271.1 L
S
GR
GS
0.149 GC
2 setlinecap
1 LJ
0.5 LW
N
507 236.8 M
502.66 236.8 L
S
GR
GS
0.149 GC
2 setlinecap
1 LJ
0.5 LW
N
507 202.5 M
502.66 202.5 L
S
GR
GS
0.149 GC
2 setlinecap
1 LJ
0.5 LW
N
507 168.2 M
502.66 168.2 L
S
GR
GS
0.149 GC
2 setlinecap
1 LJ
0.5 LW
N
507 133.9 M
502.66 133.9 L
S
GR
GS
0.149 GC
2 setlinecap
1 LJ
0.5 LW
N
507 99.6 M
502.66 99.6 L
S
GR
GS
0.149 GC
2 setlinecap
1 LJ
0.5 LW
N
507 65.3 M
502.66 65.3 L
S
GR
GS
0.149 GC
2 setlinecap
1 LJ
0.5 LW
N
507 31 M
502.66 31 L
S
GR
GS
[1 0 0 1 69 374] CT
0.149 GC
/Helvetica 10 F
GS
[1 0 0 1 0 0] CT
-7 3.5 moveto 
1 -1 scale
(0) t 
GR
GR
GS
[1 0 0 1 69 339.70001] CT
0.149 GC
/Helvetica 10 F
GS
[1 0 0 1 0 0] CT
-16 3.5 moveto 
1 -1 scale
(0.1) t 
GR
GR
GS
[1 0 0 1 69 305.39999] CT
0.149 GC
/Helvetica 10 F
GS
[1 0 0 1 0 0] CT
-16 3.5 moveto 
1 -1 scale
(0.2) t 
GR
GR
GS
[1 0 0 1 69 271.10001] CT
0.149 GC
/Helvetica 10 F
GS
[1 0 0 1 0 0] CT
-16 3.5 moveto 
1 -1 scale
(0.3) t 
GR
GR
GS
[1 0 0 1 69 236.8] CT
0.149 GC
/Helvetica 10 F
GS
[1 0 0 1 0 0] CT
-16 3.5 moveto 
1 -1 scale
(0.4) t 
GR
GR
GS
[1 0 0 1 69 202.5] CT
0.149 GC
/Helvetica 10 F
GS
[1 0 0 1 0 0] CT
-16 3.5 moveto 
1 -1 scale
(0.5) t 
GR
GR
GS
[1 0 0 1 69 168.2] CT
0.149 GC
/Helvetica 10 F
GS
[1 0 0 1 0 0] CT
-16 3.5 moveto 
1 -1 scale
(0.6) t 
GR
GR
GS
[1 0 0 1 69 133.90001] CT
0.149 GC
/Helvetica 10 F
GS
[1 0 0 1 0 0] CT
-16 3.5 moveto 
1 -1 scale
(0.7) t 
GR
GR
GS
[1 0 0 1 69 99.6] CT
0.149 GC
/Helvetica 10 F
GS
[1 0 0 1 0 0] CT
-16 3.5 moveto 
1 -1 scale
(0.8) t 
GR
GR
GS
[1 0 0 1 69 65.30001] CT
0.149 GC
/Helvetica 10 F
GS
[1 0 0 1 0 0] CT
-16 3.5 moveto 
1 -1 scale
(0.9) t 
GR
GR
GS
[1 0 0 1 69 31] CT
0.149 GC
/Helvetica 10 F
GS
[1 0 0 1 0 0] CT
-7 3.5 moveto 
1 -1 scale
(1) t 
GR
GR
GS
[0 -1 1 0 50 202.49983] CT
0.149 GC
/Helvetica 11 F
GS
[1 0 0 1 0 0] CT
-53.5 -3 moveto 
1 -1 scale
(Success probability) t 
GR
GR
GS
0 0.447 0.741 RC
1 LJ
0.5 LW
N
73 31 M
73.424 31 L
73.848 31 L
74.273 31 L
74.697 31 L
75.121 31 L
75.545 31 L
75.97 31 L
76.394 31 L
76.818 31 L
77.242 31 L
77.667 31 L
78.091 31 L
78.515 31 L
78.939 31 L
79.364 31 L
79.788 31 L
80.212 31 L
80.636 31 L
81.061 31 L
81.485 31 L
81.909 31 L
82.333 31 L
82.758 31 L
83.182 31 L
83.606 31 L
84.03 31 L
84.455 31 L
84.879 31 L
85.303 31 L
85.727 31 L
86.152 31 L
86.576 31 L
87 31 L
87.424 31 L
87.848 31 L
88.273 31 L
88.697 31 L
89.121 31 L
89.545 31 L
89.97 31 L
90.394 31 L
90.818 31 L
91.242 31 L
91.667 31 L
92.091 31 L
92.515 31 L
92.939 31 L
93.364 31 L
93.788 31 L
94.212 31 L
94.636 31 L
95.061 31 L
95.485 31 L
95.909 31 L
96.333 31 L
96.758 31 L
97.182 31 L
97.606 31 L
98.03 31 L
98.455 31 L
98.879 31 L
99.303 31 L
99.727 31 L
100.152 31 L
100.576 31 L
101 31 L
101.424 31 L
101.848 31 L
102.273 31 L
102.697 31 L
103.121 31 L
103.545 31 L
103.97 31 L
104.394 31 L
104.818 31 L
105.242 31 L
105.667 31 L
106.091 31 L
106.515 31 L
106.939 31 L
107.364 31 L
107.788 31 L
108.212 31 L
108.636 31.343 L
109.061 31.343 L
109.485 31.343 L
109.909 31.343 L
110.333 31.343 L
110.758 31.343 L
111.182 31.343 L
111.606 31.343 L
112.03 31.343 L
112.455 31.343 L
112.879 31.343 L
113.303 31.343 L
113.727 31.343 L
114.152 31.343 L
114.576 31.343 L
115 31.343 L
115.424 31.343 L
115.848 31.343 L
116.273 31.686 L
116.697 31.686 L
117.121 31.686 L
117.545 32.372 L
117.97 32.372 L
118.394 32.372 L
118.818 32.372 L
119.242 32.372 L
119.667 32.715 L
120.091 33.058 L
120.515 33.058 L
120.939 33.058 L
121.364 33.058 L
121.788 33.058 L
122.212 33.058 L
122.636 33.401 L
123.061 33.401 L
123.485 33.744 L
123.909 33.744 L
124.333 34.087 L
124.758 34.43 L
125.182 34.43 L
125.606 34.43 L
126.03 34.773 L
126.455 34.773 L
126.879 34.773 L
127.303 34.773 L
127.727 34.773 L
128.152 35.116 L
128.576 35.116 L
129 35.116 L
129.424 35.116 L
129.848 35.116 L
130.273 35.116 L
130.697 35.459 L
131.121 35.459 L
131.545 35.459 L
131.97 35.459 L
132.394 35.459 L
132.818 35.459 L
133.242 35.802 L
133.667 35.802 L
134.091 36.145 L
134.515 36.145 L
134.939 36.145 L
135.364 36.488 L
135.788 37.174 L
136.212 37.174 L
136.636 37.174 L
137.061 37.174 L
137.485 37.174 L
137.909 37.174 L
138.333 37.174 L
138.758 37.174 L
139.182 37.86 L
139.606 38.203 L
140.03 38.546 L
140.455 38.546 L
140.879 39.232 L
141.303 39.232 L
141.727 39.575 L
142.152 39.575 L
142.576 39.575 L
143 39.918 L
143.424 40.261 L
143.848 40.604 L
144.273 40.947 L
144.697 41.29 L
145.121 41.29 L
145.545 41.633 L
145.97 41.633 L
146.394 41.976 L
146.818 41.976 L
147.242 42.319 L
147.667 43.005 L
148.091 43.005 L
148.515 43.005 L
148.939 43.005 L
149.364 43.005 L
149.788 44.034 L
150.212 44.72 L
150.636 44.72 L
151.061 44.72 L
151.485 44.72 L
151.909 45.406 L
152.333 46.092 L
152.758 46.092 L
153.182 46.778 L
153.606 47.121 L
154.03 47.807 L
154.455 47.807 L
154.879 48.15 L
155.303 48.836 L
155.727 49.179 L
156.152 49.522 L
156.576 50.894 L
157 50.894 L
157.424 51.237 L
157.848 52.609 L
158.273 52.952 L
158.697 53.295 L
159.121 53.295 L
159.545 53.295 L
159.97 54.324 L
160.394 55.01 L
160.818 55.01 L
161.242 55.696 L
161.667 55.696 L
162.091 57.068 L
162.515 57.411 L
162.939 57.754 L
163.364 58.783 L
163.788 59.469 L
164.212 59.469 L
164.636 59.469 L
165.061 60.155 L
165.485 60.841 L
165.909 60.841 L
166.333 61.87 L
166.758 62.213 L
167.182 62.899 L
167.606 63.585 L
168.03 64.271 L
168.455 65.3 L
168.879 65.3 L
169.303 65.3 L
169.727 65.986 L
170.152 66.672 L
170.576 67.701 L
171 68.387 L
171.424 69.073 L
171.848 70.788 L
172.273 73.532 L
172.697 73.875 L
173.121 74.218 L
173.545 74.218 L
173.97 75.59 L
174.394 75.933 L
174.818 75.933 L
175.242 76.962 L
175.667 76.962 L
176.091 78.334 L
176.515 78.677 L
176.939 80.049 L
177.364 80.735 L
177.788 80.735 L
178.212 82.793 L
178.636 83.479 L
179.061 83.822 L
179.485 84.508 L
179.909 84.851 L
180.333 84.851 L
180.758 85.88 L
181.182 86.223 L
181.606 86.223 L
182.03 86.566 L
182.455 86.909 L
182.879 87.252 L
183.303 88.624 L
183.727 89.31 L
184.152 90.682 L
184.576 91.368 L
185 91.711 L
185.424 92.397 L
185.848 94.112 L
186.273 95.141 L
186.697 96.513 L
187.121 96.856 L
187.545 97.199 L
187.97 97.199 L
188.394 97.542 L
188.818 98.228 L
189.242 99.6 L
189.667 100.286 L
190.091 100.629 L
190.515 101.315 L
190.939 101.315 L
191.364 102.687 L
191.788 104.059 L
192.212 105.088 L
192.636 105.088 L
193.061 107.146 L
193.485 109.547 L
193.909 109.89 L
194.333 111.262 L
194.758 113.32 L
195.182 113.32 L
195.606 116.064 L
196.03 117.093 L
196.455 118.122 L
196.879 119.837 L
197.303 120.18 L
197.727 121.209 L
198.152 121.209 L
198.576 122.581 L
199 123.953 L
199.424 125.325 L
199.848 126.354 L
200.273 126.697 L
200.697 127.04 L
201.121 128.412 L
201.545 128.755 L
201.97 129.441 L
202.394 130.127 L
202.818 131.156 L
203.242 132.185 L
203.667 132.185 L
204.091 133.557 L
204.515 134.929 L
204.939 135.958 L
205.364 136.987 L
205.788 136.987 L
206.212 138.016 L
206.636 138.359 L
207.061 139.731 L
207.485 142.132 L
207.909 143.161 L
208.333 144.533 L
208.758 146.591 L
209.182 147.277 L
209.606 147.62 L
210.03 148.649 L
210.455 149.335 L
210.879 149.678 L
211.303 151.736 L
211.727 152.079 L
212.152 153.108 L
212.576 153.451 L
213 154.48 L
213.424 156.195 L
213.848 156.881 L
214.273 157.91 L
214.697 158.253 L
215.121 159.968 L
215.545 160.654 L
215.97 161.683 L
216.394 162.712 L
216.818 163.398 L
217.242 165.799 L
217.667 166.828 L
218.091 168.2 L
218.515 169.572 L
218.939 169.572 L
219.364 170.258 L
219.788 170.944 L
220.212 172.316 L
220.636 172.659 L
221.061 173.688 L
221.485 175.403 L
221.909 176.432 L
222.333 178.147 L
222.758 179.862 L
223.182 181.234 L
223.606 182.949 L
224.03 183.978 L
224.455 185.35 L
224.879 186.722 L
225.303 188.437 L
225.727 189.809 L
226.152 190.838 L
226.576 191.524 L
227 193.239 L
227.424 194.954 L
227.848 195.983 L
228.273 197.355 L
228.697 198.041 L
229.121 200.099 L
229.545 202.843 L
229.97 202.843 L
230.394 202.843 L
230.818 203.872 L
231.242 204.901 L
231.667 206.959 L
232.091 208.674 L
232.515 209.36 L
232.939 209.703 L
233.364 212.79 L
233.788 214.848 L
234.212 215.191 L
234.636 216.563 L
235.061 216.563 L
235.485 217.592 L
235.909 217.935 L
236.333 218.278 L
236.758 218.278 L
237.182 220.336 L
237.606 220.336 L
238.03 221.365 L
238.455 222.737 L
238.879 224.452 L
239.303 226.51 L
239.727 227.882 L
240.152 228.568 L
240.576 229.254 L
241 230.283 L
241.424 230.969 L
241.848 232.684 L
242.273 234.056 L
242.697 234.742 L
243.121 235.428 L
243.545 236.114 L
243.97 237.143 L
244.394 238.172 L
244.818 238.515 L
245.242 239.887 L
245.667 240.916 L
246.091 241.259 L
246.515 243.317 L
246.939 245.032 L
247.364 246.061 L
247.788 247.09 L
248.212 247.776 L
248.636 249.148 L
249.061 250.863 L
249.485 251.892 L
249.909 252.921 L
250.333 253.607 L
250.758 253.607 L
251.182 253.607 L
251.606 254.979 L
252.03 255.665 L
252.455 256.351 L
252.879 257.38 L
253.303 258.409 L
253.727 259.095 L
254.152 261.153 L
254.576 261.839 L
255 262.868 L
255.424 264.24 L
255.848 264.926 L
256.273 266.298 L
256.697 268.013 L
257.121 268.699 L
257.545 268.699 L
257.97 269.728 L
258.394 270.071 L
258.818 270.071 L
259.242 271.1 L
259.667 272.472 L
260.091 274.53 L
260.515 274.873 L
260.939 275.216 L
261.364 277.274 L
261.788 277.96 L
262.212 280.018 L
262.636 282.076 L
263.061 282.076 L
263.485 282.076 L
263.909 283.448 L
264.333 283.791 L
264.758 284.134 L
265.182 285.163 L
265.606 285.163 L
266.03 285.849 L
266.455 287.221 L
266.879 288.25 L
267.303 288.936 L
267.727 289.622 L
268.152 289.965 L
268.576 290.994 L
269 292.023 L
269.424 293.395 L
269.848 295.453 L
270.273 295.796 L
270.697 295.796 L
271.121 296.825 L
271.545 297.168 L
271.97 298.197 L
272.394 299.569 L
272.818 300.941 L
273.242 302.999 L
273.667 303.685 L
274.091 305.057 L
274.515 305.4 L
274.939 306.429 L
275.364 307.458 L
275.788 307.801 L
276.212 308.144 L
276.636 308.83 L
277.061 309.859 L
277.485 310.545 L
277.909 310.545 L
278.333 310.545 L
278.758 310.888 L
279.182 311.231 L
279.606 311.574 L
280.03 311.917 L
280.455 313.632 L
280.879 315.004 L
281.303 315.347 L
281.727 315.69 L
282.152 316.376 L
282.576 317.748 L
283 318.777 L
283.424 319.806 L
283.848 320.492 L
284.273 320.835 L
284.697 322.207 L
285.121 323.236 L
285.545 324.608 L
285.97 325.98 L
286.394 326.666 L
286.818 326.666 L
287.242 327.695 L
287.667 328.038 L
288.091 329.41 L
288.515 330.439 L
288.939 330.439 L
289.364 330.782 L
289.788 331.811 L
290.212 332.497 L
290.636 333.526 L
291.061 335.584 L
291.485 335.927 L
291.909 336.613 L
292.333 337.299 L
292.758 337.642 L
293.182 339.357 L
293.606 339.7 L
294.03 339.7 L
294.455 340.729 L
294.879 340.729 L
295.303 341.072 L
295.727 342.101 L
296.152 342.787 L
296.576 342.787 L
297 343.13 L
297.424 345.531 L
297.848 346.56 L
298.273 347.246 L
298.697 347.589 L
299.121 347.932 L
299.545 348.618 L
299.97 348.961 L
300.394 349.99 L
300.818 350.333 L
301.242 351.019 L
301.667 351.362 L
302.091 352.048 L
302.515 352.391 L
302.939 353.42 L
303.364 353.763 L
303.788 354.106 L
304.212 354.106 L
304.636 354.449 L
305.061 355.821 L
305.485 356.164 L
305.909 356.85 L
306.333 357.536 L
306.758 357.536 L
307.182 357.536 L
307.606 357.879 L
308.03 358.565 L
308.455 358.565 L
308.879 359.937 L
309.303 361.652 L
309.727 361.652 L
310.152 361.995 L
310.576 361.995 L
311 362.338 L
311.424 362.338 L
311.848 363.024 L
312.273 363.71 L
312.697 363.71 L
313.121 363.71 L
313.545 364.053 L
313.97 364.739 L
314.394 365.082 L
314.818 365.082 L
315.242 365.082 L
315.667 365.768 L
316.091 366.111 L
316.515 366.111 L
316.939 366.454 L
317.364 366.454 L
317.788 366.797 L
318.212 366.797 L
318.636 366.797 L
319.061 367.14 L
319.485 367.483 L
319.909 367.483 L
320.333 367.483 L
320.758 367.826 L
321.182 367.826 L
321.606 367.826 L
322.03 367.826 L
322.455 368.169 L
322.879 368.855 L
323.303 368.855 L
323.727 369.541 L
324.152 369.541 L
324.576 369.541 L
325 369.541 L
325.424 369.541 L
325.848 369.884 L
326.273 370.227 L
326.697 370.57 L
327.121 370.913 L
327.545 371.599 L
327.97 371.942 L
328.394 371.942 L
328.818 371.942 L
329.242 371.942 L
329.667 372.285 L
330.091 372.285 L
330.515 372.628 L
330.939 372.628 L
331.364 372.628 L
331.788 372.628 L
332.212 372.628 L
332.636 372.628 L
333.061 372.628 L
333.485 372.628 L
333.909 372.628 L
334.333 372.628 L
334.758 372.628 L
335.182 372.628 L
335.606 372.971 L
336.03 372.971 L
336.455 372.971 L
336.879 372.971 L
337.303 372.971 L
337.727 372.971 L
338.152 372.971 L
338.576 372.971 L
339 372.971 L
339.424 372.971 L
339.848 373.314 L
340.273 373.314 L
340.697 373.314 L
341.121 373.314 L
341.545 373.314 L
341.97 373.314 L
342.394 373.314 L
342.818 373.314 L
343.242 373.314 L
343.667 373.314 L
344.091 373.314 L
344.515 373.314 L
344.939 373.314 L
345.364 373.314 L
345.788 373.314 L
346.212 373.314 L
346.636 373.657 L
347.061 373.657 L
347.485 373.657 L
347.909 373.657 L
348.333 373.657 L
348.758 373.657 L
349.182 373.657 L
349.606 373.657 L
350.03 373.657 L
350.455 373.657 L
350.879 373.657 L
351.303 373.657 L
351.727 373.657 L
352.152 373.657 L
352.576 373.657 L
353 373.657 L
353.424 373.657 L
353.848 373.657 L
354.273 373.657 L
354.697 374 L
355.121 374 L
355.545 374 L
355.97 374 L
356.394 374 L
356.818 374 L
357.242 374 L
357.667 374 L
358.091 374 L
358.515 374 L
358.939 374 L
359.364 374 L
359.788 374 L
360.212 374 L
360.636 374 L
361.061 374 L
361.485 374 L
361.909 374 L
362.333 374 L
362.758 374 L
363.182 374 L
363.606 374 L
364.03 374 L
364.455 374 L
364.879 374 L
365.303 374 L
365.727 374 L
366.152 374 L
366.576 374 L
367 374 L
367.424 374 L
367.848 374 L
368.273 374 L
368.697 374 L
369.121 374 L
369.545 374 L
369.97 374 L
370.394 374 L
370.818 374 L
371.242 374 L
371.667 374 L
372.091 374 L
372.515 374 L
372.939 374 L
373.364 374 L
373.788 374 L
374.212 374 L
374.636 374 L
375.061 374 L
375.485 374 L
375.909 374 L
376.333 374 L
376.758 374 L
377.182 374 L
377.606 374 L
378.03 374 L
378.455 374 L
378.879 374 L
379.303 374 L
379.727 374 L
380.152 374 L
380.576 374 L
381 374 L
381.424 374 L
381.848 374 L
382.273 374 L
382.697 374 L
383.121 374 L
383.545 374 L
383.97 374 L
384.394 374 L
384.818 374 L
385.242 374 L
385.667 374 L
386.091 374 L
386.515 374 L
386.939 374 L
387.364 374 L
387.788 374 L
388.212 374 L
388.636 374 L
389.061 374 L
389.485 374 L
389.909 374 L
390.333 374 L
390.758 374 L
391.182 374 L
391.606 374 L
392.03 374 L
392.455 374 L
392.879 374 L
393.303 374 L
393.727 374 L
394.152 374 L
394.576 374 L
395 374 L
395.424 374 L
395.848 374 L
396.273 374 L
396.697 374 L
397.121 374 L
397.545 374 L
397.97 374 L
398.394 374 L
398.818 374 L
399.242 374 L
399.667 374 L
400.091 374 L
400.515 374 L
400.939 374 L
401.364 374 L
401.788 374 L
402.212 374 L
402.636 374 L
403.061 374 L
403.485 374 L
403.909 374 L
404.333 374 L
404.758 374 L
405.182 374 L
405.606 374 L
406.03 374 L
406.455 374 L
406.879 374 L
407.303 374 L
407.727 374 L
408.152 374 L
408.576 374 L
409 374 L
409.424 374 L
409.848 374 L
410.273 374 L
410.697 374 L
411.121 374 L
411.545 374 L
411.97 374 L
412.394 374 L
412.818 374 L
413.242 374 L
413.667 374 L
414.091 374 L
414.515 374 L
414.939 374 L
415.364 374 L
415.788 374 L
416.212 374 L
416.636 374 L
417.061 374 L
417.485 374 L
417.909 374 L
418.333 374 L
418.758 374 L
419.182 374 L
419.606 374 L
420.03 374 L
420.455 374 L
420.879 374 L
421.303 374 L
421.727 374 L
422.152 374 L
422.576 374 L
423 374 L
423.424 374 L
423.848 374 L
424.273 374 L
424.697 374 L
425.121 374 L
425.545 374 L
425.97 374 L
426.394 374 L
426.818 374 L
427.242 374 L
427.667 374 L
428.091 374 L
428.515 374 L
428.939 374 L
429.364 374 L
429.788 374 L
430.212 374 L
430.636 374 L
431.061 374 L
431.485 374 L
431.909 374 L
432.333 374 L
432.758 374 L
433.182 374 L
433.606 374 L
434.03 374 L
434.455 374 L
434.879 374 L
435.303 374 L
435.727 374 L
436.152 374 L
436.576 374 L
437 374 L
437.424 374 L
437.848 374 L
438.273 374 L
438.697 374 L
439.121 374 L
439.545 374 L
439.97 374 L
440.394 374 L
440.818 374 L
441.242 374 L
441.667 374 L
442.091 374 L
442.515 374 L
442.939 374 L
443.364 374 L
443.788 374 L
444.212 374 L
444.636 374 L
445.061 374 L
445.485 374 L
445.909 374 L
446.333 374 L
446.758 374 L
447.182 374 L
447.606 374 L
448.03 374 L
448.455 374 L
448.879 374 L
449.303 374 L
449.727 374 L
450.152 374 L
450.576 374 L
451 374 L
451.424 374 L
451.848 374 L
452.273 374 L
452.697 374 L
453.121 374 L
453.545 374 L
453.97 374 L
454.394 374 L
454.818 374 L
455.242 374 L
455.667 374 L
456.091 374 L
456.515 374 L
456.939 374 L
457.364 374 L
457.788 374 L
458.212 374 L
458.636 374 L
459.061 374 L
459.485 374 L
459.909 374 L
460.333 374 L
460.758 374 L
461.182 374 L
461.606 374 L
462.03 374 L
462.455 374 L
462.879 374 L
463.303 374 L
463.727 374 L
464.151 374 L
464.576 374 L
465 374 L
465.424 374 L
465.848 374 L
466.273 374 L
466.697 374 L
467.121 374 L
467.545 374 L
467.97 374 L
468.394 374 L
468.818 374 L
469.242 374 L
469.667 374 L
470.091 374 L
470.515 374 L
470.939 374 L
471.364 374 L
471.788 374 L
472.212 374 L
472.636 374 L
473.061 374 L
473.485 374 L
473.909 374 L
474.333 374 L
474.758 374 L
475.182 374 L
475.606 374 L
476.03 374 L
476.455 374 L
476.879 374 L
477.303 374 L
477.727 374 L
478.152 374 L
478.576 374 L
479 374 L
479.424 374 L
479.848 374 L
480.273 374 L
480.697 374 L
481.121 374 L
481.545 374 L
481.97 374 L
482.394 374 L
482.818 374 L
483.242 374 L
483.667 374 L
484.091 374 L
484.515 374 L
484.939 374 L
485.364 374 L
485.788 374 L
486.212 374 L
486.636 374 L
487.061 374 L
487.485 374 L
487.909 374 L
488.333 374 L
488.758 374 L
489.182 374 L
489.606 374 L
490.03 374 L
490.455 374 L
490.879 374 L
491.303 374 L
491.727 374 L
492.151 374 L
492.576 374 L
493 374 L
493.424 374 L
493.849 374 L
494.273 374 L
494.697 374 L
495.121 374 L
495.545 374 L
495.97 374 L
496.394 374 L
496.818 374 L
497.242 374 L
497.667 374 L
498.091 374 L
498.515 374 L
498.939 374 L
499.364 374 L
499.788 374 L
500.212 374 L
500.636 374 L
501.061 374 L
501.485 374 L
501.909 374 L
502.333 374 L
502.758 374 L
503.182 374 L
503.606 374 L
504.03 374 L
504.455 374 L
504.879 374 L
505.303 374 L
505.727 374 L
506.152 374 L
506.576 374 L
507 374 L
S
GR
%%Trailer
%%Pages: 1
%%EOF
