%!PS-Adobe-3.0 EPSF-3.0
%%Creator: (MATLAB, The Mathworks, Inc. Version 9.2.0.556344 \(R2017a\). Operating System: Linux)
%%Title: ./true_routes.eps
%%CreationDate: 2017-05-23T15:15:51
%%Pages: (atend)
%%BoundingBox:    44    20   381   298
%%LanguageLevel: 3
%%EndComments
%%BeginProlog
%%BeginResource: procset (Apache XML Graphics Std ProcSet) 1.2 0
%%Version: 1.2 0
%%Copyright: (Copyright 2001-2003,2010 The Apache Software Foundation. License terms: http://www.apache.org/licenses/LICENSE-2.0)
/bd{bind def}bind def
/ld{load def}bd
/GR/grestore ld
/M/moveto ld
/LJ/setlinejoin ld
/C/curveto ld
/f/fill ld
/LW/setlinewidth ld
/GC/setgray ld
/t/show ld
/N/newpath ld
/CT/concat ld
/cp/closepath ld
/S/stroke ld
/L/lineto ld
/CC/setcmykcolor ld
/A/ashow ld
/GS/gsave ld
/RC/setrgbcolor ld
/RM/rmoveto ld
/ML/setmiterlimit ld
/re {4 2 roll M
1 index 0 rlineto
0 exch rlineto
neg 0 rlineto
cp } bd
/_ctm matrix def
/_tm matrix def
/BT { _ctm currentmatrix pop matrix _tm copy pop 0 0 moveto } bd
/ET { _ctm setmatrix } bd
/iTm { _ctm setmatrix _tm concat } bd
/Tm { _tm astore pop iTm 0 0 moveto } bd
/ux 0.0 def
/uy 0.0 def
/F {
  /Tp exch def
  /Tf exch def
  Tf findfont Tp scalefont setfont
  /cf Tf def  /cs Tp def
} bd
/ULS {currentpoint /uy exch def /ux exch def} bd
/ULE {
  /Tcx currentpoint pop def
  gsave
  newpath
  cf findfont cs scalefont dup
  /FontMatrix get 0 get /Ts exch def /FontInfo get dup
  /UnderlinePosition get Ts mul /To exch def
  /UnderlineThickness get Ts mul /Tt exch def
  ux uy To add moveto  Tcx uy To add lineto
  Tt setlinewidth stroke
  grestore
} bd
/OLE {
  /Tcx currentpoint pop def
  gsave
  newpath
  cf findfont cs scalefont dup
  /FontMatrix get 0 get /Ts exch def /FontInfo get dup
  /UnderlinePosition get Ts mul /To exch def
  /UnderlineThickness get Ts mul /Tt exch def
  ux uy To add cs add moveto Tcx uy To add cs add lineto
  Tt setlinewidth stroke
  grestore
} bd
/SOE {
  /Tcx currentpoint pop def
  gsave
  newpath
  cf findfont cs scalefont dup
  /FontMatrix get 0 get /Ts exch def /FontInfo get dup
  /UnderlinePosition get Ts mul /To exch def
  /UnderlineThickness get Ts mul /Tt exch def
  ux uy To add cs 10 mul 26 idiv add moveto Tcx uy To add cs 10 mul 26 idiv add lineto
  Tt setlinewidth stroke
  grestore
} bd
/QT {
/Y22 exch store
/X22 exch store
/Y21 exch store
/X21 exch store
currentpoint
/Y21 load 2 mul add 3 div exch
/X21 load 2 mul add 3 div exch
/X21 load 2 mul /X22 load add 3 div
/Y21 load 2 mul /Y22 load add 3 div
/X22 load /Y22 load curveto
} bd
/SSPD {
dup length /d exch dict def
{
/v exch def
/k exch def
currentpagedevice k known {
/cpdv currentpagedevice k get def
v cpdv ne {
/upd false def
/nullv v type /nulltype eq def
/nullcpdv cpdv type /nulltype eq def
nullv nullcpdv or
{
/upd true def
} {
/sametype v type cpdv type eq def
sametype {
v type /arraytype eq {
/vlen v length def
/cpdvlen cpdv length def
vlen cpdvlen eq {
0 1 vlen 1 sub {
/i exch def
/obj v i get def
/cpdobj cpdv i get def
obj cpdobj ne {
/upd true def
exit
} if
} for
} {
/upd true def
} ifelse
} {
v type /dicttype eq {
v {
/dv exch def
/dk exch def
/cpddv cpdv dk get def
dv cpddv ne {
/upd true def
exit
} if
} forall
} {
/upd true def
} ifelse
} ifelse
} if
} ifelse
upd true eq {
d k v put
} if
} if
} if
} forall
d length 0 gt {
d setpagedevice
} if
} bd
/RE { % /NewFontName [NewEncodingArray] /FontName RE -
  findfont dup length dict begin
  {
    1 index /FID ne
    {def} {pop pop} ifelse
  } forall
  /Encoding exch def
  /FontName 1 index def
  currentdict definefont pop
  end
} bind def
%%EndResource
%%BeginResource: procset (Apache XML Graphics EPS ProcSet) 1.0 0
%%Version: 1.0 0
%%Copyright: (Copyright 2002-2003 The Apache Software Foundation. License terms: http://www.apache.org/licenses/LICENSE-2.0)
/BeginEPSF { %def
/b4_Inc_state save def         % Save state for cleanup
/dict_count countdictstack def % Count objects on dict stack
/op_count count 1 sub def      % Count objects on operand stack
userdict begin                 % Push userdict on dict stack
/showpage { } def              % Redefine showpage, { } = null proc
0 setgray 0 setlinecap         % Prepare graphics state
1 setlinewidth 0 setlinejoin
10 setmiterlimit [ ] 0 setdash newpath
/languagelevel where           % If level not equal to 1 then
{pop languagelevel             % set strokeadjust and
1 ne                           % overprint to their defaults.
{false setstrokeadjust false setoverprint
} if
} if
} bd
/EndEPSF { %def
count op_count sub {pop} repeat            % Clean up stacks
countdictstack dict_count sub {end} repeat
b4_Inc_state restore
} bd
%%EndResource
%FOPBeginFontDict
%%IncludeResource: font Courier-Bold
%%IncludeResource: font Helvetica
%%IncludeResource: font Courier-BoldOblique
%%IncludeResource: font Courier-Oblique
%%IncludeResource: font Times-Roman
%%IncludeResource: font Helvetica-BoldOblique
%%IncludeResource: font Helvetica-Bold
%%IncludeResource: font Helvetica-Oblique
%%IncludeResource: font Times-BoldItalic
%%IncludeResource: font Courier
%%IncludeResource: font Times-Italic
%%IncludeResource: font Times-Bold
%%IncludeResource: font Symbol
%%IncludeResource: font ZapfDingbats
%FOPEndFontDict
%%BeginResource: encoding WinAnsiEncoding
/WinAnsiEncoding [
/.notdef /.notdef /.notdef /.notdef /.notdef
/.notdef /.notdef /.notdef /.notdef /.notdef
/.notdef /.notdef /.notdef /.notdef /.notdef
/.notdef /.notdef /.notdef /.notdef /.notdef
/.notdef /.notdef /.notdef /.notdef /.notdef
/.notdef /.notdef /.notdef /.notdef /.notdef
/.notdef /.notdef /space /exclam /quotedbl
/numbersign /dollar /percent /ampersand /quotesingle
/parenleft /parenright /asterisk /plus /comma
/hyphen /period /slash /zero /one
/two /three /four /five /six
/seven /eight /nine /colon /semicolon
/less /equal /greater /question /at
/A /B /C /D /E
/F /G /H /I /J
/K /L /M /N /O
/P /Q /R /S /T
/U /V /W /X /Y
/Z /bracketleft /backslash /bracketright /asciicircum
/underscore /quoteleft /a /b /c
/d /e /f /g /h
/i /j /k /l /m
/n /o /p /q /r
/s /t /u /v /w
/x /y /z /braceleft /bar
/braceright /asciitilde /bullet /Euro /bullet
/quotesinglbase /florin /quotedblbase /ellipsis /dagger
/daggerdbl /circumflex /perthousand /Scaron /guilsinglleft
/OE /bullet /Zcaron /bullet /bullet
/quoteleft /quoteright /quotedblleft /quotedblright /bullet
/endash /emdash /asciitilde /trademark /scaron
/guilsinglright /oe /bullet /zcaron /Ydieresis
/space /exclamdown /cent /sterling /currency
/yen /brokenbar /section /dieresis /copyright
/ordfeminine /guillemotleft /logicalnot /sfthyphen /registered
/macron /degree /plusminus /twosuperior /threesuperior
/acute /mu /paragraph /middot /cedilla
/onesuperior /ordmasculine /guillemotright /onequarter /onehalf
/threequarters /questiondown /Agrave /Aacute /Acircumflex
/Atilde /Adieresis /Aring /AE /Ccedilla
/Egrave /Eacute /Ecircumflex /Edieresis /Igrave
/Iacute /Icircumflex /Idieresis /Eth /Ntilde
/Ograve /Oacute /Ocircumflex /Otilde /Odieresis
/multiply /Oslash /Ugrave /Uacute /Ucircumflex
/Udieresis /Yacute /Thorn /germandbls /agrave
/aacute /acircumflex /atilde /adieresis /aring
/ae /ccedilla /egrave /eacute /ecircumflex
/edieresis /igrave /iacute /icircumflex /idieresis
/eth /ntilde /ograve /oacute /ocircumflex
/otilde /odieresis /divide /oslash /ugrave
/uacute /ucircumflex /udieresis /yacute /thorn
/ydieresis
] def
%%EndResource
%FOPBeginFontReencode
/Courier-Bold findfont
dup length dict begin
  {1 index /FID ne {def} {pop pop} ifelse} forall
  /Encoding WinAnsiEncoding def
  currentdict
end
/Courier-Bold exch definefont pop
/Helvetica findfont
dup length dict begin
  {1 index /FID ne {def} {pop pop} ifelse} forall
  /Encoding WinAnsiEncoding def
  currentdict
end
/Helvetica exch definefont pop
/Courier-BoldOblique findfont
dup length dict begin
  {1 index /FID ne {def} {pop pop} ifelse} forall
  /Encoding WinAnsiEncoding def
  currentdict
end
/Courier-BoldOblique exch definefont pop
/Courier-Oblique findfont
dup length dict begin
  {1 index /FID ne {def} {pop pop} ifelse} forall
  /Encoding WinAnsiEncoding def
  currentdict
end
/Courier-Oblique exch definefont pop
/Times-Roman findfont
dup length dict begin
  {1 index /FID ne {def} {pop pop} ifelse} forall
  /Encoding WinAnsiEncoding def
  currentdict
end
/Times-Roman exch definefont pop
/Helvetica-BoldOblique findfont
dup length dict begin
  {1 index /FID ne {def} {pop pop} ifelse} forall
  /Encoding WinAnsiEncoding def
  currentdict
end
/Helvetica-BoldOblique exch definefont pop
/Helvetica-Bold findfont
dup length dict begin
  {1 index /FID ne {def} {pop pop} ifelse} forall
  /Encoding WinAnsiEncoding def
  currentdict
end
/Helvetica-Bold exch definefont pop
/Helvetica-Oblique findfont
dup length dict begin
  {1 index /FID ne {def} {pop pop} ifelse} forall
  /Encoding WinAnsiEncoding def
  currentdict
end
/Helvetica-Oblique exch definefont pop
/Times-BoldItalic findfont
dup length dict begin
  {1 index /FID ne {def} {pop pop} ifelse} forall
  /Encoding WinAnsiEncoding def
  currentdict
end
/Times-BoldItalic exch definefont pop
/Courier findfont
dup length dict begin
  {1 index /FID ne {def} {pop pop} ifelse} forall
  /Encoding WinAnsiEncoding def
  currentdict
end
/Courier exch definefont pop
/Times-Italic findfont
dup length dict begin
  {1 index /FID ne {def} {pop pop} ifelse} forall
  /Encoding WinAnsiEncoding def
  currentdict
end
/Times-Italic exch definefont pop
/Times-Bold findfont
dup length dict begin
  {1 index /FID ne {def} {pop pop} ifelse} forall
  /Encoding WinAnsiEncoding def
  currentdict
end
/Times-Bold exch definefont pop
%FOPEndFontReencode
%%EndProlog
%%Page: 1 1
%%PageBoundingBox: 0 0 420 315
%%BeginPageSetup
[1 0 0 -1 0 315] CT
%%EndPageSetup
GS
[0.75 0 0 0.75 0 0] CT
1 GC
N
0 0 560 420 re
f
GR
GS
[0.75 0 0 0.75 0 0] CT
1 GC
N
0 0 560 420 re
f
GR
GS
[0.75 0 0 0.75 0 0] CT
1 GC
N
73 373.65 M
507 373.65 L
507 31.35 L
73 31.35 L
cp
f
GR
GS
[0.75 0 0 0.75 0 0] CT
0.149 GC
2 setlinecap
1 LJ
0.667 LW
N
73 373.65 M
507 373.65 L
S
GR
GS
[0.75 0 0 0.75 0 0] CT
0.149 GC
2 setlinecap
1 LJ
0.667 LW
N
124.792 373.65 M
124.792 369.31 L
S
GR
GS
[0.75 0 0 0.75 0 0] CT
0.149 GC
2 setlinecap
1 LJ
0.667 LW
N
194.597 373.65 M
194.597 369.31 L
S
GR
GS
[0.75 0 0 0.75 0 0] CT
0.149 GC
2 setlinecap
1 LJ
0.667 LW
N
264.402 373.65 M
264.402 369.31 L
S
GR
GS
[0.75 0 0 0.75 0 0] CT
0.149 GC
2 setlinecap
1 LJ
0.667 LW
N
334.207 373.65 M
334.207 369.31 L
S
GR
GS
[0.75 0 0 0.75 0 0] CT
0.149 GC
2 setlinecap
1 LJ
0.667 LW
N
404.012 373.65 M
404.012 369.31 L
S
GR
GS
[0.75 0 0 0.75 0 0] CT
0.149 GC
2 setlinecap
1 LJ
0.667 LW
N
473.817 373.65 M
473.817 369.31 L
S
GR
GS
[0.75 0 0 0.75 93.59365 284.2375] CT
0.149 GC
/Helvetica 13.333 F
GS
[1 0 0 1 0 0] CT
-4.5 13 moveto 
1 -1 scale
(0) t 
GR
GR
GS
[0.75 0 0 0.75 145.94744 284.2375] CT
0.149 GC
/Helvetica 13.333 F
GS
[1 0 0 1 0 0] CT
-4.5 13 moveto 
1 -1 scale
(2) t 
GR
GR
GS
[0.75 0 0 0.75 198.30123 284.2375] CT
0.149 GC
/Helvetica 13.333 F
GS
[1 0 0 1 0 0] CT
-4.5 13 moveto 
1 -1 scale
(4) t 
GR
GR
GS
[0.75 0 0 0.75 250.65502 284.2375] CT
0.149 GC
/Helvetica 13.333 F
GS
[1 0 0 1 0 0] CT
-4.5 13 moveto 
1 -1 scale
(6) t 
GR
GR
GS
[0.75 0 0 0.75 303.00881 284.2375] CT
0.149 GC
/Helvetica 13.333 F
GS
[1 0 0 1 0 0] CT
-4.5 13 moveto 
1 -1 scale
(8) t 
GR
GR
GS
[0.75 0 0 0.75 355.3626 284.2375] CT
0.149 GC
/Helvetica 13.333 F
GS
[1 0 0 1 0 0] CT
-8.5 13 moveto 
1 -1 scale
(10) t 
GR
GR
GS
[0.75 0 0 0.75 0 0] CT
0.149 GC
2 setlinecap
1 LJ
0.667 LW
N
73 373.65 M
73 31.35 L
S
GR
GS
[0.75 0 0 0.75 0 0] CT
0.149 GC
2 setlinecap
1 LJ
0.667 LW
N
73 344.124 M
77.34 344.124 L
S
GR
GS
[0.75 0 0 0.75 0 0] CT
0.149 GC
2 setlinecap
1 LJ
0.667 LW
N
73 309.221 M
77.34 309.221 L
S
GR
GS
[0.75 0 0 0.75 0 0] CT
0.149 GC
2 setlinecap
1 LJ
0.667 LW
N
73 274.319 M
77.34 274.319 L
S
GR
GS
[0.75 0 0 0.75 0 0] CT
0.149 GC
2 setlinecap
1 LJ
0.667 LW
N
73 239.416 M
77.34 239.416 L
S
GR
GS
[0.75 0 0 0.75 0 0] CT
0.149 GC
2 setlinecap
1 LJ
0.667 LW
N
73 204.514 M
77.34 204.514 L
S
GR
GS
[0.75 0 0 0.75 0 0] CT
0.149 GC
2 setlinecap
1 LJ
0.667 LW
N
73 169.611 M
77.34 169.611 L
S
GR
GS
[0.75 0 0 0.75 0 0] CT
0.149 GC
2 setlinecap
1 LJ
0.667 LW
N
73 134.708 M
77.34 134.708 L
S
GR
GS
[0.75 0 0 0.75 0 0] CT
0.149 GC
2 setlinecap
1 LJ
0.667 LW
N
73 99.806 M
77.34 99.806 L
S
GR
GS
[0.75 0 0 0.75 0 0] CT
0.149 GC
2 setlinecap
1 LJ
0.667 LW
N
73 64.903 M
77.34 64.903 L
S
GR
GS
[0.75 0 0 0.75 50.75 258.09274] CT
0.149 GC
/Helvetica 13.333 F
GS
[1 0 0 1 0 0] CT
-9 4.5 moveto 
1 -1 scale
(1) t 
GR
GR
GS
[0.75 0 0 0.75 50.75 231.91585] CT
0.149 GC
/Helvetica 13.333 F
GS
[1 0 0 1 0 0] CT
-9 4.5 moveto 
1 -1 scale
(2) t 
GR
GR
GS
[0.75 0 0 0.75 50.75 205.73895] CT
0.149 GC
/Helvetica 13.333 F
GS
[1 0 0 1 0 0] CT
-9 4.5 moveto 
1 -1 scale
(3) t 
GR
GR
GS
[0.75 0 0 0.75 50.75 179.56206] CT
0.149 GC
/Helvetica 13.333 F
GS
[1 0 0 1 0 0] CT
-9 4.5 moveto 
1 -1 scale
(4) t 
GR
GR
GS
[0.75 0 0 0.75 50.75 153.38516] CT
0.149 GC
/Helvetica 13.333 F
GS
[1 0 0 1 0 0] CT
-9 4.5 moveto 
1 -1 scale
(5) t 
GR
GR
GS
[0.75 0 0 0.75 50.75 127.20827] CT
0.149 GC
/Helvetica 13.333 F
GS
[1 0 0 1 0 0] CT
-9 4.5 moveto 
1 -1 scale
(6) t 
GR
GR
GS
[0.75 0 0 0.75 50.75 101.03137] CT
0.149 GC
/Helvetica 13.333 F
GS
[1 0 0 1 0 0] CT
-9 4.5 moveto 
1 -1 scale
(7) t 
GR
GR
GS
[0.75 0 0 0.75 50.75 74.85448] CT
0.149 GC
/Helvetica 13.333 F
GS
[1 0 0 1 0 0] CT
-9 4.5 moveto 
1 -1 scale
(8) t 
GR
GR
GS
[0.75 0 0 0.75 50.75 48.67758] CT
0.149 GC
/Helvetica 13.333 F
GS
[1 0 0 1 0 0] CT
-9 4.5 moveto 
1 -1 scale
(9) t 
GR
GR
GS
[0.75 0 0 0.75 175.06009 145.91608] CT
0 0.447 0.741 RC
N
1.333 0 M
1.333 0.736 0.736 1.333 0 1.333 C
-0.736 1.333 -1.333 0.736 -1.333 0 C
-1.333 -0.736 -0.736 -1.333 0 -1.333 C
0.736 -1.333 1.333 -0.736 1.333 0 C
cp
f
GR
GS
[0.75 0 0 0.75 136.95535 126.68946] CT
0 0.447 0.741 RC
N
/f-1057828618{1.333 0 M
1.333 0.736 0.736 1.333 0 1.333 C
-0.736 1.333 -1.333 0.736 -1.333 0 C
-1.333 -0.736 -0.736 -1.333 0 -1.333 C
0.736 -1.333 1.333 -0.736 1.333 0 C
cp}def
f-1057828618
f
GR
GS
[0.75 0 0 0.75 162.43137 113.05204] CT
0 0.447 0.741 RC
N
f-1057828618
f
GR
GS
[0.75 0 0 0.75 274.00861 88.42679] CT
0 0.447 0.741 RC
N
f-1057828618
f
GR
GS
[0.75 0 0 0.75 211.53145 262.32781] CT
0 0.447 0.741 RC
N
f-1057828618
f
GR
GS
[0.75 0 0 0.75 153.53271 45.18629] CT
0 0.447 0.741 RC
N
f-1057828618
f
GR
GS
[0.75 0 0 0.75 133.48148 68.09639] CT
0 0.447 0.741 RC
N
f-1057828618
f
GR
GS
[0.75 0 0 0.75 234.51498 23.51249] CT
0 0.447 0.741 RC
N
f-1057828618
f
GR
GS
[0.75 0 0 0.75 114.05758 168.39022] CT
0 0.447 0.741 RC
N
f-1057828618
f
GR
GS
[0.75 0 0 0.75 121.51204 32.4746] CT
0 0.447 0.741 RC
N
f-1057828618
f
GR
GS
[0.75 0 0 0.75 94.80675 81.42214] CT
0 0.447 0.741 RC
N
f-1057828618
f
GR
GS
[0.75 0 0 0.75 307.53825 56.87234] CT
0 0.447 0.741 RC
N
f-1057828618
f
GR
GS
[0.75 0 0 0.75 115.69633 179.61896] CT
0 0.447 0.741 RC
N
f-1057828618
f
GR
GS
[0.75 0 0 0.75 161.61966 74.83656] CT
0 0.447 0.741 RC
N
f-1057828618
f
GR
GS
[0.75 0 0 0.75 206.52441 45.89038] CT
0 0.447 0.741 RC
N
f-1057828618
f
GR
GS
[0.75 0 0 0.75 141.19556 215.21423] CT
0 0.447 0.741 RC
N
f-1057828618
f
GR
GS
[0.75 0 0 0.75 131.69124 248.65112] CT
0 0.447 0.741 RC
N
f-1057828618
f
GR
GS
[0.75 0 0 0.75 321.14735 132.52098] CT
0 0.447 0.741 RC
N
f-1057828618
f
GR
GS
[0.75 0 0 0.75 237.52998 246.32497] CT
0 0.447 0.741 RC
N
f-1057828618
f
GR
GS
[0.75 0 0 0.75 316.89072 121.43492] CT
0 0.447 0.741 RC
N
f-1057828618
f
GR
GS
[0.75 0 0 0.75 185.46209 149.91685] CT
0 0.447 0.741 RC
N
f-1057828618
f
GR
GS
[0.75 0 0 0.75 198.77451 264.38393] CT
0 0.447 0.741 RC
N
f-1057828618
f
GR
GS
[0.75 0 0 0.75 156.39625 251.98858] CT
0 0.447 0.741 RC
N
f-1057828618
f
GR
GS
[0.75 0 0 0.75 141.735 221.45753] CT
0 0.447 0.741 RC
N
f-1057828618
f
GR
GS
[0.75 0 0 0.75 202.82121 271.27164] CT
0 0.447 0.741 RC
N
f-1057828618
f
GR
GS
[0.75 0 0 0.75 329.89668 36.95368] CT
0 0.447 0.741 RC
N
f-1057828618
f
GR
GS
[0.75 0 0 0.75 222.08663 156.1985] CT
0 0.447 0.741 RC
N
f-1057828618
f
GR
GS
[0.75 0 0 0.75 181.99812 48.66348] CT
0 0.447 0.741 RC
N
f-1057828618
f
GR
GS
[0.75 0 0 0.75 190.251 255.16022] CT
0 0.447 0.741 RC
N
f-1057828618
f
GR
GS
[0.75 0 0 0.75 297.83942 182.24811] CT
0 0.447 0.741 RC
N
f-1057828618
f
GR
GS
[0.75 0 0 0.75 156.86093 178.53798] CT
0 0.447 0.741 RC
N
f-1057828618
f
GR
GS
[0.75 0 0 0.75 118.84245 249.72313] CT
0 0.447 0.741 RC
N
f-1057828618
f
GR
GS
[0.75 0 0 0.75 340.19323 33.98331] CT
0 0.447 0.741 RC
N
f-1057828618
f
GR
GS
[0.75 0 0 0.75 244.16542 268.62122] CT
0 0.447 0.741 RC
N
f-1057828618
f
GR
GS
[0.75 0 0 0.75 155.05174 191.82369] CT
0 0.447 0.741 RC
N
f-1057828618
f
GR
GS
[0.75 0 0 0.75 308.55677 280.2375] CT
0 0.447 0.741 RC
N
f-1057828618
f
GR
GS
[0.75 0 0 0.75 104.85595 240.0333] CT
0 0.447 0.741 RC
N
f-1057828618
f
GR
GS
[0.75 0 0 0.75 263.51193 92.72744] CT
0 0.447 0.741 RC
N
f-1057828618
f
GR
GS
[0.75 0 0 0.75 263.15343 166.23181] CT
0 0.447 0.741 RC
N
f-1057828618
f
GR
GS
[0.75 0 0 0.75 236.78359 206.70206] CT
0 0.447 0.741 RC
N
f-1057828618
f
GR
GS
[0.75 0 0 0.75 288.5311 234.80708] CT
0 0.447 0.741 RC
N
f-1057828618
f
GR
GS
[0.75 0 0 0.75 273.37015 236.23212] CT
0 0.447 0.741 RC
N
f-1057828618
f
GR
GS
[0.75 0 0 0.75 190.05148 120.50213] CT
0 0.447 0.741 RC
N
f-1057828618
f
GR
GS
[0.75 0 0 0.75 297.83297 263.03343] CT
0 0.447 0.741 RC
N
f-1057828618
f
GR
GS
[0.75 0 0 0.75 336.87804 81.21214] CT
0 0.447 0.741 RC
N
f-1057828618
f
GR
GS
[0.75 0 0 0.75 221.02059 170.1754] CT
0 0.447 0.741 RC
N
f-1057828618
f
GR
GS
[0.75 0 0 0.75 210.54776 204.07686] CT
0 0.447 0.741 RC
N
f-1057828618
f
GR
GS
[0.75 0 0 0.75 226.70542 150.56551] CT
0 0.447 0.741 RC
N
f-1057828618
f
GR
GS
[0.75 0 0 0.75 307.62321 76.20745] CT
0 0.447 0.741 RC
N
f-1057828618
f
GR
GS
[0.75 0 0 0.75 262.25615 185.16147] CT
0 0.447 0.741 RC
N
f-1057828618
f
GR
GS
[0.75 0 0 0.75 175.06009 145.91608] CT
/Helvetica 21.333 F
GS
[1 0 0 1 0 0] CT
0 7.5 moveto 
1 -1 scale
( 1) t 
GR
GR
GS
[0.75 0 0 0.75 136.95535 126.68946] CT
/Helvetica 21.333 F
GS
[1 0 0 1 0 0] CT
0 7.5 moveto 
1 -1 scale
( 2) t 
GR
GR
GS
[0.75 0 0 0.75 162.43137 113.05204] CT
/Helvetica 21.333 F
GS
[1 0 0 1 0 0] CT
0 7.5 moveto 
1 -1 scale
( 3) t 
GR
GR
GS
[0.75 0 0 0.75 274.00861 88.42679] CT
/Helvetica 21.333 F
GS
[1 0 0 1 0 0] CT
0 7.5 moveto 
1 -1 scale
( 4) t 
GR
GR
GS
[0.75 0 0 0.75 211.53145 262.32781] CT
/Helvetica 21.333 F
GS
[1 0 0 1 0 0] CT
0 7.5 moveto 
1 -1 scale
( 5) t 
GR
GR
GS
[0.75 0 0 0.75 153.53271 45.18629] CT
/Helvetica 21.333 F
GS
[1 0 0 1 0 0] CT
0 7.5 moveto 
1 -1 scale
( 6) t 
GR
GR
GS
[0.75 0 0 0.75 133.48148 68.09639] CT
/Helvetica 21.333 F
GS
[1 0 0 1 0 0] CT
0 7.5 moveto 
1 -1 scale
( 7) t 
GR
GR
GS
[0.75 0 0 0.75 234.51498 23.51249] CT
/Helvetica 21.333 F
GS
[1 0 0 1 0 0] CT
0 7.5 moveto 
1 -1 scale
( 8) t 
GR
GR
GS
[0.75 0 0 0.75 114.05758 168.39022] CT
/Helvetica 21.333 F
GS
[1 0 0 1 0 0] CT
0 7.5 moveto 
1 -1 scale
( 9) t 
GR
GR
GS
[0.75 0 0 0.75 121.51204 32.4746] CT
/Helvetica 21.333 F
GS
[1 0 0 1 0 0] CT
0 7.5 moveto 
1 -1 scale
(10) t 
GR
GR
GS
[0.75 0 0 0.75 94.80675 81.42214] CT
/Helvetica 21.333 F
GS
[1 0 0 1 0 0] CT
0 7.5 moveto 
1 -1 scale
(11) t 
GR
GR
GS
[0.75 0 0 0.75 307.53825 56.87234] CT
/Helvetica 21.333 F
GS
[1 0 0 1 0 0] CT
0 7.5 moveto 
1 -1 scale
(12) t 
GR
GR
GS
[0.75 0 0 0.75 115.69633 179.61896] CT
/Helvetica 21.333 F
GS
[1 0 0 1 0 0] CT
0 7.5 moveto 
1 -1 scale
(13) t 
GR
GR
GS
[0.75 0 0 0.75 161.61966 74.83656] CT
/Helvetica 21.333 F
GS
[1 0 0 1 0 0] CT
0 7.5 moveto 
1 -1 scale
(14) t 
GR
GR
GS
[0.75 0 0 0.75 206.52441 45.89038] CT
/Helvetica 21.333 F
GS
[1 0 0 1 0 0] CT
0 7.5 moveto 
1 -1 scale
(15) t 
GR
GR
GS
[0.75 0 0 0.75 141.19556 215.21423] CT
/Helvetica 21.333 F
GS
[1 0 0 1 0 0] CT
0 7.5 moveto 
1 -1 scale
(16) t 
GR
GR
GS
[0.75 0 0 0.75 131.69124 248.65112] CT
/Helvetica 21.333 F
GS
[1 0 0 1 0 0] CT
0 7.5 moveto 
1 -1 scale
(17) t 
GR
GR
GS
[0.75 0 0 0.75 321.14735 132.52098] CT
/Helvetica 21.333 F
GS
[1 0 0 1 0 0] CT
0 7.5 moveto 
1 -1 scale
(18) t 
GR
GR
GS
[0.75 0 0 0.75 237.52998 246.32497] CT
/Helvetica 21.333 F
GS
[1 0 0 1 0 0] CT
0 7.5 moveto 
1 -1 scale
(19) t 
GR
GR
GS
[0.75 0 0 0.75 316.89072 121.43492] CT
/Helvetica 21.333 F
GS
[1 0 0 1 0 0] CT
0 7.5 moveto 
1 -1 scale
(20) t 
GR
GR
GS
[0.75 0 0 0.75 185.46209 149.91685] CT
/Helvetica 21.333 F
GS
[1 0 0 1 0 0] CT
0 7.5 moveto 
1 -1 scale
(21) t 
GR
GR
GS
[0.75 0 0 0.75 198.77451 264.38393] CT
/Helvetica 21.333 F
GS
[1 0 0 1 0 0] CT
0 7.5 moveto 
1 -1 scale
(22) t 
GR
GR
GS
[0.75 0 0 0.75 156.39625 251.98858] CT
/Helvetica 21.333 F
GS
[1 0 0 1 0 0] CT
0 7.5 moveto 
1 -1 scale
(23) t 
GR
GR
GS
[0.75 0 0 0.75 141.735 221.45753] CT
/Helvetica 21.333 F
GS
[1 0 0 1 0 0] CT
0 7.5 moveto 
1 -1 scale
(24) t 
GR
GR
GS
[0.75 0 0 0.75 202.82121 271.27164] CT
/Helvetica 21.333 F
GS
[1 0 0 1 0 0] CT
0 7.5 moveto 
1 -1 scale
(25) t 
GR
GR
GS
[0.75 0 0 0.75 329.89668 36.95368] CT
/Helvetica 21.333 F
GS
[1 0 0 1 0 0] CT
0 7.5 moveto 
1 -1 scale
(26) t 
GR
GR
GS
[0.75 0 0 0.75 222.08663 156.1985] CT
/Helvetica 21.333 F
GS
[1 0 0 1 0 0] CT
0 7.5 moveto 
1 -1 scale
(27) t 
GR
GR
GS
[0.75 0 0 0.75 181.99812 48.66348] CT
/Helvetica 21.333 F
GS
[1 0 0 1 0 0] CT
0 7.5 moveto 
1 -1 scale
(28) t 
GR
GR
GS
[0.75 0 0 0.75 190.251 255.16022] CT
/Helvetica 21.333 F
GS
[1 0 0 1 0 0] CT
0 7.5 moveto 
1 -1 scale
(29) t 
GR
GR
GS
[0.75 0 0 0.75 297.83942 182.24811] CT
/Helvetica 21.333 F
GS
[1 0 0 1 0 0] CT
0 7.5 moveto 
1 -1 scale
(30) t 
GR
GR
GS
[0.75 0 0 0.75 156.86093 178.53798] CT
/Helvetica 21.333 F
GS
[1 0 0 1 0 0] CT
0 7.5 moveto 
1 -1 scale
(31) t 
GR
GR
GS
[0.75 0 0 0.75 118.84245 249.72313] CT
/Helvetica 21.333 F
GS
[1 0 0 1 0 0] CT
0 7.5 moveto 
1 -1 scale
(32) t 
GR
GR
GS
[0.75 0 0 0.75 340.19323 33.98331] CT
/Helvetica 21.333 F
GS
[1 0 0 1 0 0] CT
0 7.5 moveto 
1 -1 scale
(33) t 
GR
GR
GS
[0.75 0 0 0.75 244.16542 268.62122] CT
/Helvetica 21.333 F
GS
[1 0 0 1 0 0] CT
0 7.5 moveto 
1 -1 scale
(34) t 
GR
GR
GS
[0.75 0 0 0.75 155.05174 191.82369] CT
/Helvetica 21.333 F
GS
[1 0 0 1 0 0] CT
0 7.5 moveto 
1 -1 scale
(35) t 
GR
GR
GS
[0.75 0 0 0.75 308.55677 280.2375] CT
/Helvetica 21.333 F
GS
[1 0 0 1 0 0] CT
0 7.5 moveto 
1 -1 scale
(36) t 
GR
GR
GS
[0.75 0 0 0.75 104.85595 240.0333] CT
/Helvetica 21.333 F
GS
[1 0 0 1 0 0] CT
0 7.5 moveto 
1 -1 scale
(37) t 
GR
GR
GS
[0.75 0 0 0.75 263.51193 92.72744] CT
/Helvetica 21.333 F
GS
[1 0 0 1 0 0] CT
0 7.5 moveto 
1 -1 scale
(38) t 
GR
GR
GS
[0.75 0 0 0.75 263.15343 166.23181] CT
/Helvetica 21.333 F
GS
[1 0 0 1 0 0] CT
0 7.5 moveto 
1 -1 scale
(39) t 
GR
GR
GS
[0.75 0 0 0.75 236.78359 206.70206] CT
/Helvetica 21.333 F
GS
[1 0 0 1 0 0] CT
0 7.5 moveto 
1 -1 scale
(40) t 
GR
GR
GS
[0.75 0 0 0.75 288.5311 234.80708] CT
/Helvetica 21.333 F
GS
[1 0 0 1 0 0] CT
0 7.5 moveto 
1 -1 scale
(41) t 
GR
GR
GS
[0.75 0 0 0.75 273.37015 236.23212] CT
/Helvetica 21.333 F
GS
[1 0 0 1 0 0] CT
0 7.5 moveto 
1 -1 scale
(42) t 
GR
GR
GS
[0.75 0 0 0.75 190.05148 120.50213] CT
/Helvetica 21.333 F
GS
[1 0 0 1 0 0] CT
0 7.5 moveto 
1 -1 scale
(43) t 
GR
GR
GS
[0.75 0 0 0.75 297.83297 263.03343] CT
/Helvetica 21.333 F
GS
[1 0 0 1 0 0] CT
0 7.5 moveto 
1 -1 scale
(44) t 
GR
GR
GS
[0.75 0 0 0.75 336.87804 81.21214] CT
/Helvetica 21.333 F
GS
[1 0 0 1 0 0] CT
0 7.5 moveto 
1 -1 scale
(45) t 
GR
GR
GS
[0.75 0 0 0.75 221.02059 170.1754] CT
/Helvetica 21.333 F
GS
[1 0 0 1 0 0] CT
0 7.5 moveto 
1 -1 scale
(46) t 
GR
GR
GS
[0.75 0 0 0.75 210.54776 204.07686] CT
/Helvetica 21.333 F
GS
[1 0 0 1 0 0] CT
0 7.5 moveto 
1 -1 scale
(47) t 
GR
GR
GS
[0.75 0 0 0.75 226.70542 150.56551] CT
/Helvetica 21.333 F
GS
[1 0 0 1 0 0] CT
0 7.5 moveto 
1 -1 scale
(48) t 
GR
GR
GS
[0.75 0 0 0.75 307.62321 76.20745] CT
/Helvetica 21.333 F
GS
[1 0 0 1 0 0] CT
0 7.5 moveto 
1 -1 scale
(49) t 
GR
GR
GS
[0.75 0 0 0.75 262.25615 185.16147] CT
/Helvetica 21.333 F
GS
[1 0 0 1 0 0] CT
0 7.5 moveto 
1 -1 scale
(50) t 
GR
GR
GS
[0.75 0 0 0.75 0 0] CT
0 0 1 RC
1 LJ
0.667 LW
N
233.413 194.555 M
182.607 168.919 L
S
GR
GS
[0.75 0 0 0.75 0 0] CT
0 0 1 RC
1 LJ
0.667 LW
N
233.413 194.555 M
216.575 150.736 L
S
GR
GS
[0.75 0 0 0.75 0 0] CT
0 0 1 RC
1 LJ
0.667 LW
N
233.413 194.555 M
152.077 224.52 L
S
GR
GS
[0.75 0 0 0.75 0 0] CT
0 0 1 RC
1 LJ
0.667 LW
N
233.413 194.555 M
154.262 239.492 L
S
GR
GS
[0.75 0 0 0.75 0 0] CT
0 0 1 RC
1 LJ
0.667 LW
N
233.413 194.555 M
215.493 99.782 L
S
GR
GS
[0.75 0 0 0.75 0 0] CT
0 0 1 RC
1 LJ
0.667 LW
N
233.413 194.555 M
188.261 286.952 L
S
GR
GS
[0.75 0 0 0.75 0 0] CT
0 0 1 RC
1 LJ
0.667 LW
N
233.413 194.555 M
247.283 199.889 L
S
GR
GS
[0.75 0 0 0.75 0 0] CT
0 0 1 RC
1 LJ
0.667 LW
N
233.413 194.555 M
296.116 208.265 L
S
GR
GS
[0.75 0 0 0.75 0 0] CT
0 0 1 RC
1 LJ
0.667 LW
N
233.413 194.555 M
209.148 238.051 L
S
GR
GS
[0.75 0 0 0.75 0 0] CT
0 0 1 RC
1 LJ
0.667 LW
N
233.413 194.555 M
206.736 255.765 L
S
GR
GS
[0.75 0 0 0.75 0 0] CT
0 0 1 RC
1 LJ
0.667 LW
N
233.413 194.555 M
253.402 160.67 L
S
GR
GS
[0.75 0 0 0.75 0 0] CT
0 0 1 RC
1 LJ
0.667 LW
N
233.413 194.555 M
294.694 226.901 L
S
GR
GS
[0.75 0 0 0.75 0 0] CT
0 0 1 RC
1 LJ
0.667 LW
N
233.413 194.555 M
280.73 272.102 L
S
GR
GS
[0.75 0 0 0.75 0 0] CT
0 0 1 RC
1 LJ
0.667 LW
N
233.413 194.555 M
302.274 200.754 L
S
GR
GS
[0.75 0 0 0.75 0 0] CT
0 0 1 RC
1 LJ
0.667 LW
N
182.607 168.919 M
216.575 150.736 L
S
GR
GS
[0.75 0 0 0.75 0 0] CT
0 0 1 RC
1 LJ
0.667 LW
N
182.607 168.919 M
177.975 90.795 L
S
GR
GS
[0.75 0 0 0.75 0 0] CT
0 0 1 RC
1 LJ
0.667 LW
N
182.607 168.919 M
152.077 224.52 L
S
GR
GS
[0.75 0 0 0.75 0 0] CT
0 0 1 RC
1 LJ
0.667 LW
N
182.607 168.919 M
126.409 108.563 L
S
GR
GS
[0.75 0 0 0.75 0 0] CT
0 0 1 RC
1 LJ
0.667 LW
N
182.607 168.919 M
154.262 239.492 L
S
GR
GS
[0.75 0 0 0.75 0 0] CT
0 0 1 RC
1 LJ
0.667 LW
N
182.607 168.919 M
215.493 99.782 L
S
GR
GS
[0.75 0 0 0.75 0 0] CT
0 0 1 RC
1 LJ
0.667 LW
N
182.607 168.919 M
247.283 199.889 L
S
GR
GS
[0.75 0 0 0.75 0 0] CT
0 0 1 RC
1 LJ
0.667 LW
N
182.607 168.919 M
209.148 238.051 L
S
GR
GS
[0.75 0 0 0.75 0 0] CT
0 0 1 RC
1 LJ
0.667 LW
N
182.607 168.919 M
206.736 255.765 L
S
GR
GS
[0.75 0 0 0.75 0 0] CT
0 0 1 RC
1 LJ
0.667 LW
N
182.607 168.919 M
253.402 160.67 L
S
GR
GS
[0.75 0 0 0.75 0 0] CT
0 0 1 RC
1 LJ
0.667 LW
N
216.575 150.736 M
204.71 60.248 L
S
GR
GS
[0.75 0 0 0.75 0 0] CT
0 0 1 RC
1 LJ
0.667 LW
N
216.575 150.736 M
177.975 90.795 L
S
GR
GS
[0.75 0 0 0.75 0 0] CT
0 0 1 RC
1 LJ
0.667 LW
N
216.575 150.736 M
152.077 224.52 L
S
GR
GS
[0.75 0 0 0.75 0 0] CT
0 0 1 RC
1 LJ
0.667 LW
N
216.575 150.736 M
126.409 108.563 L
S
GR
GS
[0.75 0 0 0.75 0 0] CT
0 0 1 RC
1 LJ
0.667 LW
N
216.575 150.736 M
215.493 99.782 L
S
GR
GS
[0.75 0 0 0.75 0 0] CT
0 0 1 RC
1 LJ
0.667 LW
N
216.575 150.736 M
247.283 199.889 L
S
GR
GS
[0.75 0 0 0.75 0 0] CT
0 0 1 RC
1 LJ
0.667 LW
N
216.575 150.736 M
296.116 208.265 L
S
GR
GS
[0.75 0 0 0.75 0 0] CT
0 0 1 RC
1 LJ
0.667 LW
N
216.575 150.736 M
242.664 64.885 L
S
GR
GS
[0.75 0 0 0.75 0 0] CT
0 0 1 RC
1 LJ
0.667 LW
N
216.575 150.736 M
209.148 238.051 L
S
GR
GS
[0.75 0 0 0.75 0 0] CT
0 0 1 RC
1 LJ
0.667 LW
N
216.575 150.736 M
253.402 160.67 L
S
GR
GS
[0.75 0 0 0.75 0 0] CT
0 0 1 RC
1 LJ
0.667 LW
N
216.575 150.736 M
302.274 200.754 L
S
GR
GS
[0.75 0 0 0.75 0 0] CT
0 0 1 RC
1 LJ
0.667 LW
N
365.345 117.902 M
312.687 31.35 L
S
GR
GS
[0.75 0 0 0.75 0 0] CT
0 0 1 RC
1 LJ
0.667 LW
N
365.345 117.902 M
410.051 75.83 L
S
GR
GS
[0.75 0 0 0.75 0 0] CT
0 0 1 RC
1 LJ
0.667 LW
N
365.345 117.902 M
428.196 176.695 L
S
GR
GS
[0.75 0 0 0.75 0 0] CT
0 0 1 RC
1 LJ
0.667 LW
N
365.345 117.902 M
422.521 161.913 L
S
GR
GS
[0.75 0 0 0.75 0 0] CT
0 0 1 RC
1 LJ
0.667 LW
N
365.345 117.902 M
439.862 49.272 L
S
GR
GS
[0.75 0 0 0.75 0 0] CT
0 0 1 RC
1 LJ
0.667 LW
N
365.345 117.902 M
351.349 123.637 L
S
GR
GS
[0.75 0 0 0.75 0 0] CT
0 0 1 RC
1 LJ
0.667 LW
N
365.345 117.902 M
449.171 108.283 L
S
GR
GS
[0.75 0 0 0.75 0 0] CT
0 0 1 RC
1 LJ
0.667 LW
N
365.345 117.902 M
302.274 200.754 L
S
GR
GS
[0.75 0 0 0.75 0 0] CT
0 0 1 RC
1 LJ
0.667 LW
N
365.345 117.902 M
410.164 101.61 L
S
GR
GS
[0.75 0 0 0.75 0 0] CT
0 0 1 RC
1 LJ
0.667 LW
N
282.042 349.77 M
316.707 328.433 L
S
GR
GS
[0.75 0 0 0.75 0 0] CT
0 0 1 RC
1 LJ
0.667 LW
N
282.042 349.77 M
265.033 352.512 L
S
GR
GS
[0.75 0 0 0.75 0 0] CT
0 0 1 RC
1 LJ
0.667 LW
N
282.042 349.77 M
208.528 335.985 L
S
GR
GS
[0.75 0 0 0.75 0 0] CT
0 0 1 RC
1 LJ
0.667 LW
N
282.042 349.77 M
270.428 361.696 L
S
GR
GS
[0.75 0 0 0.75 0 0] CT
0 0 1 RC
1 LJ
0.667 LW
N
282.042 349.77 M
253.668 340.214 L
S
GR
GS
[0.75 0 0 0.75 0 0] CT
0 0 1 RC
1 LJ
0.667 LW
N
282.042 349.77 M
325.554 358.162 L
S
GR
GS
[0.75 0 0 0.75 0 0] CT
0 0 1 RC
1 LJ
0.667 LW
N
282.042 349.77 M
315.711 275.603 L
S
GR
GS
[0.75 0 0 0.75 0 0] CT
0 0 1 RC
1 LJ
0.667 LW
N
282.042 349.77 M
364.494 314.976 L
S
GR
GS
[0.75 0 0 0.75 0 0] CT
0 0 1 RC
1 LJ
0.667 LW
N
282.042 349.77 M
280.73 272.102 L
S
GR
GS
[0.75 0 0 0.75 0 0] CT
0 0 1 RC
1 LJ
0.667 LW
N
204.71 60.248 M
177.975 90.795 L
S
GR
GS
[0.75 0 0 0.75 0 0] CT
0 0 1 RC
1 LJ
0.667 LW
N
204.71 60.248 M
162.016 43.299 L
S
GR
GS
[0.75 0 0 0.75 0 0] CT
0 0 1 RC
1 LJ
0.667 LW
N
204.71 60.248 M
126.409 108.563 L
S
GR
GS
[0.75 0 0 0.75 0 0] CT
0 0 1 RC
1 LJ
0.667 LW
N
204.71 60.248 M
215.493 99.782 L
S
GR
GS
[0.75 0 0 0.75 0 0] CT
0 0 1 RC
1 LJ
0.667 LW
N
204.71 60.248 M
275.366 61.187 L
S
GR
GS
[0.75 0 0 0.75 0 0] CT
0 0 1 RC
1 LJ
0.667 LW
N
204.71 60.248 M
242.664 64.885 L
S
GR
GS
[0.75 0 0 0.75 0 0] CT
0 0 1 RC
1 LJ
0.667 LW
N
177.975 90.795 M
162.016 43.299 L
S
GR
GS
[0.75 0 0 0.75 0 0] CT
0 0 1 RC
1 LJ
0.667 LW
N
177.975 90.795 M
126.409 108.563 L
S
GR
GS
[0.75 0 0 0.75 0 0] CT
0 0 1 RC
1 LJ
0.667 LW
N
177.975 90.795 M
215.493 99.782 L
S
GR
GS
[0.75 0 0 0.75 0 0] CT
0 0 1 RC
1 LJ
0.667 LW
N
177.975 90.795 M
275.366 61.187 L
S
GR
GS
[0.75 0 0 0.75 0 0] CT
0 0 1 RC
1 LJ
0.667 LW
N
177.975 90.795 M
242.664 64.885 L
S
GR
GS
[0.75 0 0 0.75 0 0] CT
0 0 1 RC
1 LJ
0.667 LW
N
177.975 90.795 M
253.402 160.67 L
S
GR
GS
[0.75 0 0 0.75 0 0] CT
0 0 1 RC
1 LJ
0.667 LW
N
312.687 31.35 M
275.366 61.187 L
S
GR
GS
[0.75 0 0 0.75 0 0] CT
0 0 1 RC
1 LJ
0.667 LW
N
312.687 31.35 M
242.664 64.885 L
S
GR
GS
[0.75 0 0 0.75 0 0] CT
0 0 1 RC
1 LJ
0.667 LW
N
312.687 31.35 M
351.349 123.637 L
S
GR
GS
[0.75 0 0 0.75 0 0] CT
0 0 1 RC
1 LJ
0.667 LW
N
152.077 224.52 M
154.262 239.492 L
S
GR
GS
[0.75 0 0 0.75 0 0] CT
0 0 1 RC
1 LJ
0.667 LW
N
152.077 224.52 M
188.261 286.952 L
S
GR
GS
[0.75 0 0 0.75 0 0] CT
0 0 1 RC
1 LJ
0.667 LW
N
152.077 224.52 M
247.283 199.889 L
S
GR
GS
[0.75 0 0 0.75 0 0] CT
0 0 1 RC
1 LJ
0.667 LW
N
152.077 224.52 M
188.98 295.277 L
S
GR
GS
[0.75 0 0 0.75 0 0] CT
0 0 1 RC
1 LJ
0.667 LW
N
152.077 224.52 M
209.148 238.051 L
S
GR
GS
[0.75 0 0 0.75 0 0] CT
0 0 1 RC
1 LJ
0.667 LW
N
152.077 224.52 M
206.736 255.765 L
S
GR
GS
[0.75 0 0 0.75 0 0] CT
0 0 1 RC
1 LJ
0.667 LW
N
152.077 224.52 M
139.808 320.044 L
S
GR
GS
[0.75 0 0 0.75 0 0] CT
0 0 1 RC
1 LJ
0.667 LW
N
162.016 43.299 M
126.409 108.563 L
S
GR
GS
[0.75 0 0 0.75 0 0] CT
0 0 1 RC
1 LJ
0.667 LW
N
162.016 43.299 M
215.493 99.782 L
S
GR
GS
[0.75 0 0 0.75 0 0] CT
0 0 1 RC
1 LJ
0.667 LW
N
162.016 43.299 M
242.664 64.885 L
S
GR
GS
[0.75 0 0 0.75 0 0] CT
0 0 1 RC
1 LJ
0.667 LW
N
126.409 108.563 M
215.493 99.782 L
S
GR
GS
[0.75 0 0 0.75 0 0] CT
0 0 1 RC
1 LJ
0.667 LW
N
410.051 75.83 M
428.196 176.695 L
S
GR
GS
[0.75 0 0 0.75 0 0] CT
0 0 1 RC
1 LJ
0.667 LW
N
410.051 75.83 M
422.521 161.913 L
S
GR
GS
[0.75 0 0 0.75 0 0] CT
0 0 1 RC
1 LJ
0.667 LW
N
410.051 75.83 M
439.862 49.272 L
S
GR
GS
[0.75 0 0 0.75 0 0] CT
0 0 1 RC
1 LJ
0.667 LW
N
410.051 75.83 M
453.591 45.311 L
S
GR
GS
[0.75 0 0 0.75 0 0] CT
0 0 1 RC
1 LJ
0.667 LW
N
410.051 75.83 M
351.349 123.637 L
S
GR
GS
[0.75 0 0 0.75 0 0] CT
0 0 1 RC
1 LJ
0.667 LW
N
410.051 75.83 M
449.171 108.283 L
S
GR
GS
[0.75 0 0 0.75 0 0] CT
0 0 1 RC
1 LJ
0.667 LW
N
410.051 75.83 M
410.164 101.61 L
S
GR
GS
[0.75 0 0 0.75 0 0] CT
0 0 1 RC
1 LJ
0.667 LW
N
154.262 239.492 M
188.261 286.952 L
S
GR
GS
[0.75 0 0 0.75 0 0] CT
0 0 1 RC
1 LJ
0.667 LW
N
154.262 239.492 M
175.588 331.535 L
S
GR
GS
[0.75 0 0 0.75 0 0] CT
0 0 1 RC
1 LJ
0.667 LW
N
154.262 239.492 M
247.283 199.889 L
S
GR
GS
[0.75 0 0 0.75 0 0] CT
0 0 1 RC
1 LJ
0.667 LW
N
154.262 239.492 M
188.98 295.277 L
S
GR
GS
[0.75 0 0 0.75 0 0] CT
0 0 1 RC
1 LJ
0.667 LW
N
154.262 239.492 M
209.148 238.051 L
S
GR
GS
[0.75 0 0 0.75 0 0] CT
0 0 1 RC
1 LJ
0.667 LW
N
154.262 239.492 M
158.457 332.964 L
S
GR
GS
[0.75 0 0 0.75 0 0] CT
0 0 1 RC
1 LJ
0.667 LW
N
154.262 239.492 M
206.736 255.765 L
S
GR
GS
[0.75 0 0 0.75 0 0] CT
0 0 1 RC
1 LJ
0.667 LW
N
154.262 239.492 M
139.808 320.044 L
S
GR
GS
[0.75 0 0 0.75 0 0] CT
0 0 1 RC
1 LJ
0.667 LW
N
215.493 99.782 M
275.366 61.187 L
S
GR
GS
[0.75 0 0 0.75 0 0] CT
0 0 1 RC
1 LJ
0.667 LW
N
215.493 99.782 M
242.664 64.885 L
S
GR
GS
[0.75 0 0 0.75 0 0] CT
0 0 1 RC
1 LJ
0.667 LW
N
215.493 99.782 M
253.402 160.67 L
S
GR
GS
[0.75 0 0 0.75 0 0] CT
0 0 1 RC
1 LJ
0.667 LW
N
275.366 61.187 M
242.664 64.885 L
S
GR
GS
[0.75 0 0 0.75 0 0] CT
0 0 1 RC
1 LJ
0.667 LW
N
275.366 61.187 M
351.349 123.637 L
S
GR
GS
[0.75 0 0 0.75 0 0] CT
0 0 1 RC
1 LJ
0.667 LW
N
275.366 61.187 M
253.402 160.67 L
S
GR
GS
[0.75 0 0 0.75 0 0] CT
0 0 1 RC
1 LJ
0.667 LW
N
188.261 286.952 M
175.588 331.535 L
S
GR
GS
[0.75 0 0 0.75 0 0] CT
0 0 1 RC
1 LJ
0.667 LW
N
188.261 286.952 M
265.033 352.512 L
S
GR
GS
[0.75 0 0 0.75 0 0] CT
0 0 1 RC
1 LJ
0.667 LW
N
188.261 286.952 M
208.528 335.985 L
S
GR
GS
[0.75 0 0 0.75 0 0] CT
0 0 1 RC
1 LJ
0.667 LW
N
188.261 286.952 M
188.98 295.277 L
S
GR
GS
[0.75 0 0 0.75 0 0] CT
0 0 1 RC
1 LJ
0.667 LW
N
188.261 286.952 M
253.668 340.214 L
S
GR
GS
[0.75 0 0 0.75 0 0] CT
0 0 1 RC
1 LJ
0.667 LW
N
188.261 286.952 M
209.148 238.051 L
S
GR
GS
[0.75 0 0 0.75 0 0] CT
0 0 1 RC
1 LJ
0.667 LW
N
188.261 286.952 M
158.457 332.964 L
S
GR
GS
[0.75 0 0 0.75 0 0] CT
0 0 1 RC
1 LJ
0.667 LW
N
188.261 286.952 M
206.736 255.765 L
S
GR
GS
[0.75 0 0 0.75 0 0] CT
0 0 1 RC
1 LJ
0.667 LW
N
188.261 286.952 M
139.808 320.044 L
S
GR
GS
[0.75 0 0 0.75 0 0] CT
0 0 1 RC
1 LJ
0.667 LW
N
188.261 286.952 M
280.73 272.102 L
S
GR
GS
[0.75 0 0 0.75 0 0] CT
0 0 1 RC
1 LJ
0.667 LW
N
175.588 331.535 M
265.033 352.512 L
S
GR
GS
[0.75 0 0 0.75 0 0] CT
0 0 1 RC
1 LJ
0.667 LW
N
175.588 331.535 M
208.528 335.985 L
S
GR
GS
[0.75 0 0 0.75 0 0] CT
0 0 1 RC
1 LJ
0.667 LW
N
175.588 331.535 M
188.98 295.277 L
S
GR
GS
[0.75 0 0 0.75 0 0] CT
0 0 1 RC
1 LJ
0.667 LW
N
175.588 331.535 M
270.428 361.696 L
S
GR
GS
[0.75 0 0 0.75 0 0] CT
0 0 1 RC
1 LJ
0.667 LW
N
175.588 331.535 M
253.668 340.214 L
S
GR
GS
[0.75 0 0 0.75 0 0] CT
0 0 1 RC
1 LJ
0.667 LW
N
175.588 331.535 M
209.148 238.051 L
S
GR
GS
[0.75 0 0 0.75 0 0] CT
0 0 1 RC
1 LJ
0.667 LW
N
175.588 331.535 M
158.457 332.964 L
S
GR
GS
[0.75 0 0 0.75 0 0] CT
0 0 1 RC
1 LJ
0.667 LW
N
175.588 331.535 M
206.736 255.765 L
S
GR
GS
[0.75 0 0 0.75 0 0] CT
0 0 1 RC
1 LJ
0.667 LW
N
175.588 331.535 M
139.808 320.044 L
S
GR
GS
[0.75 0 0 0.75 0 0] CT
0 0 1 RC
1 LJ
0.667 LW
N
428.196 176.695 M
422.521 161.913 L
S
GR
GS
[0.75 0 0 0.75 0 0] CT
0 0 1 RC
1 LJ
0.667 LW
N
428.196 176.695 M
397.119 242.997 L
S
GR
GS
[0.75 0 0 0.75 0 0] CT
0 0 1 RC
1 LJ
0.667 LW
N
428.196 176.695 M
351.349 123.637 L
S
GR
GS
[0.75 0 0 0.75 0 0] CT
0 0 1 RC
1 LJ
0.667 LW
N
428.196 176.695 M
350.871 221.642 L
S
GR
GS
[0.75 0 0 0.75 0 0] CT
0 0 1 RC
1 LJ
0.667 LW
N
428.196 176.695 M
449.171 108.283 L
S
GR
GS
[0.75 0 0 0.75 0 0] CT
0 0 1 RC
1 LJ
0.667 LW
N
428.196 176.695 M
410.164 101.61 L
S
GR
GS
[0.75 0 0 0.75 0 0] CT
0 0 1 RC
1 LJ
0.667 LW
N
316.707 328.433 M
265.033 352.512 L
S
GR
GS
[0.75 0 0 0.75 0 0] CT
0 0 1 RC
1 LJ
0.667 LW
N
316.707 328.433 M
270.428 361.696 L
S
GR
GS
[0.75 0 0 0.75 0 0] CT
0 0 1 RC
1 LJ
0.667 LW
N
316.707 328.433 M
253.668 340.214 L
S
GR
GS
[0.75 0 0 0.75 0 0] CT
0 0 1 RC
1 LJ
0.667 LW
N
316.707 328.433 M
325.554 358.162 L
S
GR
GS
[0.75 0 0 0.75 0 0] CT
0 0 1 RC
1 LJ
0.667 LW
N
316.707 328.433 M
315.711 275.603 L
S
GR
GS
[0.75 0 0 0.75 0 0] CT
0 0 1 RC
1 LJ
0.667 LW
N
316.707 328.433 M
384.708 313.076 L
S
GR
GS
[0.75 0 0 0.75 0 0] CT
0 0 1 RC
1 LJ
0.667 LW
N
316.707 328.433 M
364.494 314.976 L
S
GR
GS
[0.75 0 0 0.75 0 0] CT
0 0 1 RC
1 LJ
0.667 LW
N
316.707 328.433 M
397.111 350.711 L
S
GR
GS
[0.75 0 0 0.75 0 0] CT
0 0 1 RC
1 LJ
0.667 LW
N
316.707 328.433 M
294.694 226.901 L
S
GR
GS
[0.75 0 0 0.75 0 0] CT
0 0 1 RC
1 LJ
0.667 LW
N
316.707 328.433 M
280.73 272.102 L
S
GR
GS
[0.75 0 0 0.75 0 0] CT
0 0 1 RC
1 LJ
0.667 LW
N
316.707 328.433 M
349.675 246.882 L
S
GR
GS
[0.75 0 0 0.75 0 0] CT
0 0 1 RC
1 LJ
0.667 LW
N
422.521 161.913 M
397.119 242.997 L
S
GR
GS
[0.75 0 0 0.75 0 0] CT
0 0 1 RC
1 LJ
0.667 LW
N
422.521 161.913 M
351.349 123.637 L
S
GR
GS
[0.75 0 0 0.75 0 0] CT
0 0 1 RC
1 LJ
0.667 LW
N
422.521 161.913 M
350.871 221.642 L
S
GR
GS
[0.75 0 0 0.75 0 0] CT
0 0 1 RC
1 LJ
0.667 LW
N
422.521 161.913 M
449.171 108.283 L
S
GR
GS
[0.75 0 0 0.75 0 0] CT
0 0 1 RC
1 LJ
0.667 LW
N
422.521 161.913 M
410.164 101.61 L
S
GR
GS
[0.75 0 0 0.75 0 0] CT
0 0 1 RC
1 LJ
0.667 LW
N
247.283 199.889 M
296.116 208.265 L
S
GR
GS
[0.75 0 0 0.75 0 0] CT
0 0 1 RC
1 LJ
0.667 LW
N
247.283 199.889 M
209.148 238.051 L
S
GR
GS
[0.75 0 0 0.75 0 0] CT
0 0 1 RC
1 LJ
0.667 LW
N
247.283 199.889 M
206.736 255.765 L
S
GR
GS
[0.75 0 0 0.75 0 0] CT
0 0 1 RC
1 LJ
0.667 LW
N
247.283 199.889 M
315.711 275.603 L
S
GR
GS
[0.75 0 0 0.75 0 0] CT
0 0 1 RC
1 LJ
0.667 LW
N
247.283 199.889 M
253.402 160.67 L
S
GR
GS
[0.75 0 0 0.75 0 0] CT
0 0 1 RC
1 LJ
0.667 LW
N
247.283 199.889 M
294.694 226.901 L
S
GR
GS
[0.75 0 0 0.75 0 0] CT
0 0 1 RC
1 LJ
0.667 LW
N
247.283 199.889 M
280.73 272.102 L
S
GR
GS
[0.75 0 0 0.75 0 0] CT
0 0 1 RC
1 LJ
0.667 LW
N
247.283 199.889 M
302.274 200.754 L
S
GR
GS
[0.75 0 0 0.75 0 0] CT
0 0 1 RC
1 LJ
0.667 LW
N
265.033 352.512 M
208.528 335.985 L
S
GR
GS
[0.75 0 0 0.75 0 0] CT
0 0 1 RC
1 LJ
0.667 LW
N
265.033 352.512 M
188.98 295.277 L
S
GR
GS
[0.75 0 0 0.75 0 0] CT
0 0 1 RC
1 LJ
0.667 LW
N
265.033 352.512 M
270.428 361.696 L
S
GR
GS
[0.75 0 0 0.75 0 0] CT
0 0 1 RC
1 LJ
0.667 LW
N
265.033 352.512 M
253.668 340.214 L
S
GR
GS
[0.75 0 0 0.75 0 0] CT
0 0 1 RC
1 LJ
0.667 LW
N
265.033 352.512 M
325.554 358.162 L
S
GR
GS
[0.75 0 0 0.75 0 0] CT
0 0 1 RC
1 LJ
0.667 LW
N
265.033 352.512 M
315.711 275.603 L
S
GR
GS
[0.75 0 0 0.75 0 0] CT
0 0 1 RC
1 LJ
0.667 LW
N
265.033 352.512 M
280.73 272.102 L
S
GR
GS
[0.75 0 0 0.75 0 0] CT
0 0 1 RC
1 LJ
0.667 LW
N
208.528 335.985 M
188.98 295.277 L
S
GR
GS
[0.75 0 0 0.75 0 0] CT
0 0 1 RC
1 LJ
0.667 LW
N
208.528 335.985 M
270.428 361.696 L
S
GR
GS
[0.75 0 0 0.75 0 0] CT
0 0 1 RC
1 LJ
0.667 LW
N
208.528 335.985 M
253.668 340.214 L
S
GR
GS
[0.75 0 0 0.75 0 0] CT
0 0 1 RC
1 LJ
0.667 LW
N
208.528 335.985 M
209.148 238.051 L
S
GR
GS
[0.75 0 0 0.75 0 0] CT
0 0 1 RC
1 LJ
0.667 LW
N
208.528 335.985 M
158.457 332.964 L
S
GR
GS
[0.75 0 0 0.75 0 0] CT
0 0 1 RC
1 LJ
0.667 LW
N
208.528 335.985 M
206.736 255.765 L
S
GR
GS
[0.75 0 0 0.75 0 0] CT
0 0 1 RC
1 LJ
0.667 LW
N
208.528 335.985 M
139.808 320.044 L
S
GR
GS
[0.75 0 0 0.75 0 0] CT
0 0 1 RC
1 LJ
0.667 LW
N
208.528 335.985 M
280.73 272.102 L
S
GR
GS
[0.75 0 0 0.75 0 0] CT
0 0 1 RC
1 LJ
0.667 LW
N
188.98 295.277 M
253.668 340.214 L
S
GR
GS
[0.75 0 0 0.75 0 0] CT
0 0 1 RC
1 LJ
0.667 LW
N
188.98 295.277 M
209.148 238.051 L
S
GR
GS
[0.75 0 0 0.75 0 0] CT
0 0 1 RC
1 LJ
0.667 LW
N
188.98 295.277 M
158.457 332.964 L
S
GR
GS
[0.75 0 0 0.75 0 0] CT
0 0 1 RC
1 LJ
0.667 LW
N
188.98 295.277 M
206.736 255.765 L
S
GR
GS
[0.75 0 0 0.75 0 0] CT
0 0 1 RC
1 LJ
0.667 LW
N
188.98 295.277 M
139.808 320.044 L
S
GR
GS
[0.75 0 0 0.75 0 0] CT
0 0 1 RC
1 LJ
0.667 LW
N
188.98 295.277 M
280.73 272.102 L
S
GR
GS
[0.75 0 0 0.75 0 0] CT
0 0 1 RC
1 LJ
0.667 LW
N
270.428 361.696 M
253.668 340.214 L
S
GR
GS
[0.75 0 0 0.75 0 0] CT
0 0 1 RC
1 LJ
0.667 LW
N
270.428 361.696 M
325.554 358.162 L
S
GR
GS
[0.75 0 0 0.75 0 0] CT
0 0 1 RC
1 LJ
0.667 LW
N
270.428 361.696 M
315.711 275.603 L
S
GR
GS
[0.75 0 0 0.75 0 0] CT
0 0 1 RC
1 LJ
0.667 LW
N
270.428 361.696 M
280.73 272.102 L
S
GR
GS
[0.75 0 0 0.75 0 0] CT
0 0 1 RC
1 LJ
0.667 LW
N
439.862 49.272 M
453.591 45.311 L
S
GR
GS
[0.75 0 0 0.75 0 0] CT
0 0 1 RC
1 LJ
0.667 LW
N
439.862 49.272 M
449.171 108.283 L
S
GR
GS
[0.75 0 0 0.75 0 0] CT
0 0 1 RC
1 LJ
0.667 LW
N
439.862 49.272 M
410.164 101.61 L
S
GR
GS
[0.75 0 0 0.75 0 0] CT
0 0 1 RC
1 LJ
0.667 LW
N
296.116 208.265 M
209.148 238.051 L
S
GR
GS
[0.75 0 0 0.75 0 0] CT
0 0 1 RC
1 LJ
0.667 LW
N
296.116 208.265 M
206.736 255.765 L
S
GR
GS
[0.75 0 0 0.75 0 0] CT
0 0 1 RC
1 LJ
0.667 LW
N
296.116 208.265 M
351.349 123.637 L
S
GR
GS
[0.75 0 0 0.75 0 0] CT
0 0 1 RC
1 LJ
0.667 LW
N
296.116 208.265 M
350.871 221.642 L
S
GR
GS
[0.75 0 0 0.75 0 0] CT
0 0 1 RC
1 LJ
0.667 LW
N
296.116 208.265 M
315.711 275.603 L
S
GR
GS
[0.75 0 0 0.75 0 0] CT
0 0 1 RC
1 LJ
0.667 LW
N
296.116 208.265 M
253.402 160.67 L
S
GR
GS
[0.75 0 0 0.75 0 0] CT
0 0 1 RC
1 LJ
0.667 LW
N
296.116 208.265 M
294.694 226.901 L
S
GR
GS
[0.75 0 0 0.75 0 0] CT
0 0 1 RC
1 LJ
0.667 LW
N
296.116 208.265 M
280.73 272.102 L
S
GR
GS
[0.75 0 0 0.75 0 0] CT
0 0 1 RC
1 LJ
0.667 LW
N
296.116 208.265 M
302.274 200.754 L
S
GR
GS
[0.75 0 0 0.75 0 0] CT
0 0 1 RC
1 LJ
0.667 LW
N
296.116 208.265 M
349.675 246.882 L
S
GR
GS
[0.75 0 0 0.75 0 0] CT
0 0 1 RC
1 LJ
0.667 LW
N
242.664 64.885 M
253.402 160.67 L
S
GR
GS
[0.75 0 0 0.75 0 0] CT
0 0 1 RC
1 LJ
0.667 LW
N
253.668 340.214 M
158.457 332.964 L
S
GR
GS
[0.75 0 0 0.75 0 0] CT
0 0 1 RC
1 LJ
0.667 LW
N
253.668 340.214 M
325.554 358.162 L
S
GR
GS
[0.75 0 0 0.75 0 0] CT
0 0 1 RC
1 LJ
0.667 LW
N
253.668 340.214 M
206.736 255.765 L
S
GR
GS
[0.75 0 0 0.75 0 0] CT
0 0 1 RC
1 LJ
0.667 LW
N
253.668 340.214 M
315.711 275.603 L
S
GR
GS
[0.75 0 0 0.75 0 0] CT
0 0 1 RC
1 LJ
0.667 LW
N
253.668 340.214 M
280.73 272.102 L
S
GR
GS
[0.75 0 0 0.75 0 0] CT
0 0 1 RC
1 LJ
0.667 LW
N
397.119 242.997 M
350.871 221.642 L
S
GR
GS
[0.75 0 0 0.75 0 0] CT
0 0 1 RC
1 LJ
0.667 LW
N
397.119 242.997 M
315.711 275.603 L
S
GR
GS
[0.75 0 0 0.75 0 0] CT
0 0 1 RC
1 LJ
0.667 LW
N
397.119 242.997 M
384.708 313.076 L
S
GR
GS
[0.75 0 0 0.75 0 0] CT
0 0 1 RC
1 LJ
0.667 LW
N
397.119 242.997 M
364.494 314.976 L
S
GR
GS
[0.75 0 0 0.75 0 0] CT
0 0 1 RC
1 LJ
0.667 LW
N
397.119 242.997 M
294.694 226.901 L
S
GR
GS
[0.75 0 0 0.75 0 0] CT
0 0 1 RC
1 LJ
0.667 LW
N
397.119 242.997 M
302.274 200.754 L
S
GR
GS
[0.75 0 0 0.75 0 0] CT
0 0 1 RC
1 LJ
0.667 LW
N
397.119 242.997 M
349.675 246.882 L
S
GR
GS
[0.75 0 0 0.75 0 0] CT
0 0 1 RC
1 LJ
0.667 LW
N
209.148 238.051 M
206.736 255.765 L
S
GR
GS
[0.75 0 0 0.75 0 0] CT
0 0 1 RC
1 LJ
0.667 LW
N
209.148 238.051 M
253.402 160.67 L
S
GR
GS
[0.75 0 0 0.75 0 0] CT
0 0 1 RC
1 LJ
0.667 LW
N
209.148 238.051 M
294.694 226.901 L
S
GR
GS
[0.75 0 0 0.75 0 0] CT
0 0 1 RC
1 LJ
0.667 LW
N
209.148 238.051 M
280.73 272.102 L
S
GR
GS
[0.75 0 0 0.75 0 0] CT
0 0 1 RC
1 LJ
0.667 LW
N
209.148 238.051 M
302.274 200.754 L
S
GR
GS
[0.75 0 0 0.75 0 0] CT
0 0 1 RC
1 LJ
0.667 LW
N
158.457 332.964 M
206.736 255.765 L
S
GR
GS
[0.75 0 0 0.75 0 0] CT
0 0 1 RC
1 LJ
0.667 LW
N
158.457 332.964 M
139.808 320.044 L
S
GR
GS
[0.75 0 0 0.75 0 0] CT
0 0 1 RC
1 LJ
0.667 LW
N
453.591 45.311 M
449.171 108.283 L
S
GR
GS
[0.75 0 0 0.75 0 0] CT
0 0 1 RC
1 LJ
0.667 LW
N
453.591 45.311 M
410.164 101.61 L
S
GR
GS
[0.75 0 0 0.75 0 0] CT
0 0 1 RC
1 LJ
0.667 LW
N
325.554 358.162 M
411.409 373.65 L
S
GR
GS
[0.75 0 0 0.75 0 0] CT
0 0 1 RC
1 LJ
0.667 LW
N
325.554 358.162 M
315.711 275.603 L
S
GR
GS
[0.75 0 0 0.75 0 0] CT
0 0 1 RC
1 LJ
0.667 LW
N
325.554 358.162 M
384.708 313.076 L
S
GR
GS
[0.75 0 0 0.75 0 0] CT
0 0 1 RC
1 LJ
0.667 LW
N
325.554 358.162 M
364.494 314.976 L
S
GR
GS
[0.75 0 0 0.75 0 0] CT
0 0 1 RC
1 LJ
0.667 LW
N
325.554 358.162 M
397.111 350.711 L
S
GR
GS
[0.75 0 0 0.75 0 0] CT
0 0 1 RC
1 LJ
0.667 LW
N
325.554 358.162 M
280.73 272.102 L
S
GR
GS
[0.75 0 0 0.75 0 0] CT
0 0 1 RC
1 LJ
0.667 LW
N
206.736 255.765 M
139.808 320.044 L
S
GR
GS
[0.75 0 0 0.75 0 0] CT
0 0 1 RC
1 LJ
0.667 LW
N
206.736 255.765 M
294.694 226.901 L
S
GR
GS
[0.75 0 0 0.75 0 0] CT
0 0 1 RC
1 LJ
0.667 LW
N
206.736 255.765 M
280.73 272.102 L
S
GR
GS
[0.75 0 0 0.75 0 0] CT
0 0 1 RC
1 LJ
0.667 LW
N
411.409 373.65 M
384.708 313.076 L
S
GR
GS
[0.75 0 0 0.75 0 0] CT
0 0 1 RC
1 LJ
0.667 LW
N
411.409 373.65 M
364.494 314.976 L
S
GR
GS
[0.75 0 0 0.75 0 0] CT
0 0 1 RC
1 LJ
0.667 LW
N
411.409 373.65 M
397.111 350.711 L
S
GR
GS
[0.75 0 0 0.75 0 0] CT
0 0 1 RC
1 LJ
0.667 LW
N
351.349 123.637 M
350.871 221.642 L
S
GR
GS
[0.75 0 0 0.75 0 0] CT
0 0 1 RC
1 LJ
0.667 LW
N
351.349 123.637 M
449.171 108.283 L
S
GR
GS
[0.75 0 0 0.75 0 0] CT
0 0 1 RC
1 LJ
0.667 LW
N
351.349 123.637 M
302.274 200.754 L
S
GR
GS
[0.75 0 0 0.75 0 0] CT
0 0 1 RC
1 LJ
0.667 LW
N
351.349 123.637 M
410.164 101.61 L
S
GR
GS
[0.75 0 0 0.75 0 0] CT
0 0 1 RC
1 LJ
0.667 LW
N
350.871 221.642 M
315.711 275.603 L
S
GR
GS
[0.75 0 0 0.75 0 0] CT
0 0 1 RC
1 LJ
0.667 LW
N
350.871 221.642 M
384.708 313.076 L
S
GR
GS
[0.75 0 0 0.75 0 0] CT
0 0 1 RC
1 LJ
0.667 LW
N
350.871 221.642 M
364.494 314.976 L
S
GR
GS
[0.75 0 0 0.75 0 0] CT
0 0 1 RC
1 LJ
0.667 LW
N
350.871 221.642 M
294.694 226.901 L
S
GR
GS
[0.75 0 0 0.75 0 0] CT
0 0 1 RC
1 LJ
0.667 LW
N
350.871 221.642 M
280.73 272.102 L
S
GR
GS
[0.75 0 0 0.75 0 0] CT
0 0 1 RC
1 LJ
0.667 LW
N
350.871 221.642 M
302.274 200.754 L
S
GR
GS
[0.75 0 0 0.75 0 0] CT
0 0 1 RC
1 LJ
0.667 LW
N
350.871 221.642 M
349.675 246.882 L
S
GR
GS
[0.75 0 0 0.75 0 0] CT
0 0 1 RC
1 LJ
0.667 LW
N
315.711 275.603 M
384.708 313.076 L
S
GR
GS
[0.75 0 0 0.75 0 0] CT
0 0 1 RC
1 LJ
0.667 LW
N
315.711 275.603 M
364.494 314.976 L
S
GR
GS
[0.75 0 0 0.75 0 0] CT
0 0 1 RC
1 LJ
0.667 LW
N
315.711 275.603 M
294.694 226.901 L
S
GR
GS
[0.75 0 0 0.75 0 0] CT
0 0 1 RC
1 LJ
0.667 LW
N
315.711 275.603 M
280.73 272.102 L
S
GR
GS
[0.75 0 0 0.75 0 0] CT
0 0 1 RC
1 LJ
0.667 LW
N
315.711 275.603 M
302.274 200.754 L
S
GR
GS
[0.75 0 0 0.75 0 0] CT
0 0 1 RC
1 LJ
0.667 LW
N
315.711 275.603 M
349.675 246.882 L
S
GR
GS
[0.75 0 0 0.75 0 0] CT
0 0 1 RC
1 LJ
0.667 LW
N
384.708 313.076 M
364.494 314.976 L
S
GR
GS
[0.75 0 0 0.75 0 0] CT
0 0 1 RC
1 LJ
0.667 LW
N
384.708 313.076 M
397.111 350.711 L
S
GR
GS
[0.75 0 0 0.75 0 0] CT
0 0 1 RC
1 LJ
0.667 LW
N
384.708 313.076 M
349.675 246.882 L
S
GR
GS
[0.75 0 0 0.75 0 0] CT
0 0 1 RC
1 LJ
0.667 LW
N
364.494 314.976 M
397.111 350.711 L
S
GR
GS
[0.75 0 0 0.75 0 0] CT
0 0 1 RC
1 LJ
0.667 LW
N
364.494 314.976 M
280.73 272.102 L
S
GR
GS
[0.75 0 0 0.75 0 0] CT
0 0 1 RC
1 LJ
0.667 LW
N
364.494 314.976 M
349.675 246.882 L
S
GR
GS
[0.75 0 0 0.75 0 0] CT
0 0 1 RC
1 LJ
0.667 LW
N
253.402 160.67 M
294.694 226.901 L
S
GR
GS
[0.75 0 0 0.75 0 0] CT
0 0 1 RC
1 LJ
0.667 LW
N
253.402 160.67 M
302.274 200.754 L
S
GR
GS
[0.75 0 0 0.75 0 0] CT
0 0 1 RC
1 LJ
0.667 LW
N
449.171 108.283 M
410.164 101.61 L
S
GR
GS
[0.75 0 0 0.75 0 0] CT
0 0 1 RC
1 LJ
0.667 LW
N
294.694 226.901 M
280.73 272.102 L
S
GR
GS
[0.75 0 0 0.75 0 0] CT
0 0 1 RC
1 LJ
0.667 LW
N
294.694 226.901 M
302.274 200.754 L
S
GR
GS
[0.75 0 0 0.75 0 0] CT
0 0 1 RC
1 LJ
0.667 LW
N
294.694 226.901 M
349.675 246.882 L
S
GR
GS
[0.75 0 0 0.75 0 0] CT
0 0 1 RC
1 LJ
0.667 LW
N
280.73 272.102 M
302.274 200.754 L
S
GR
GS
[0.75 0 0 0.75 0 0] CT
0 0 1 RC
1 LJ
0.667 LW
N
280.73 272.102 M
349.675 246.882 L
S
GR
GS
[0.75 0 0 0.75 0 0] CT
0 0 1 RC
1 LJ
0.667 LW
N
302.274 200.754 M
349.675 246.882 L
S
GR
GS
[0.75 0 0 0.75 288.5311 234.80708] CT
1 0 0 RC
10.0 ML
6.667 LW
N
12.833 -0.5 M
12.833 -7.864 6.864 -13.833 -0.5 -13.833 C
-7.864 -13.833 -13.833 -7.864 -13.833 -0.5 C
-13.833 6.864 -7.864 12.833 -0.5 12.833 C
6.864 12.833 12.833 6.864 12.833 -0.5 C
S
GR
GS
[0.75 0 0 0.75 0 0] CT
1 0 0 RC
1 LJ
5.333 LW
N
411.409 373.65 M
384.708 313.076 L
S
GR
GS
[0.75 0 0 0.75 0 0] CT
1 0 0 RC
1 LJ
5.333 LW
N
397.111 350.711 M
384.708 313.076 L
S
GR
GS
[0.75 0 0 0.75 0 0] CT
1 0 0 RC
1 LJ
5.333 LW
N
312.687 31.35 M
351.349 123.637 L
S
GR
GS
[0.75 0 0 0.75 0 0] CT
1 0 0 RC
1 LJ
5.333 LW
N
351.349 123.637 M
350.871 221.642 L
S
GR
GS
[0.75 0 0 0.75 0 0] CT
1 0 0 RC
1 LJ
5.333 LW
N
350.871 221.642 M
384.708 313.076 L
S
GR
GS
[0.75 0 0 0.75 0 0] CT
1 0 0 RC
1 LJ
5.333 LW
N
410.051 75.83 M
428.196 176.695 L
S
GR
GS
[0.75 0 0 0.75 0 0] CT
1 0 0 RC
1 LJ
5.333 LW
N
428.196 176.695 M
397.119 242.997 L
S
GR
GS
[0.75 0 0 0.75 0 0] CT
1 0 0 RC
1 LJ
5.333 LW
N
397.119 242.997 M
384.708 313.076 L
S
GR
GS
[0.75 0 0 0.75 0 0] CT
1 0 0 RC
1 LJ
5.333 LW
N
275.366 61.187 M
351.349 123.637 L
S
GR
GS
[0.75 0 0 0.75 0 0] CT
1 0 0 RC
1 LJ
5.333 LW
N
422.521 161.913 M
397.119 242.997 L
S
GR
GS
[0.75 0 0 0.75 0 0] CT
1 0 0 RC
1 LJ
5.333 LW
N
453.591 45.311 M
410.051 75.83 L
S
GR
GS
[0.75 0 0 0.75 0 0] CT
1 0 0 RC
1 LJ
5.333 LW
N
449.171 108.283 M
428.196 176.695 L
S
GR
GS
[0.75 0 0 0.75 0 0] CT
1 0 0 RC
1 LJ
5.333 LW
N
410.164 101.61 M
428.196 176.695 L
S
GR
GS
[0.75 0 0 0.75 0 0] CT
1 0 0 RC
1 LJ
5.333 LW
N
349.675 246.882 M
384.708 313.076 L
S
GR
%%Trailer
%%Pages: 1
%%EOF
